<?xml version="1.0" encoding="utf-8"?>
<!DOCTYPE eagle SYSTEM "eagle.dtd">
<eagle version="6.1">
<drawing>
<settings>
<setting alwaysvectorfont="no"/>
<setting verticaltext="up"/>
</settings>
<grid distance="25" unitdist="mil" unit="mil" style="lines" multiple="1" display="yes" altdistance="12.5" altunitdist="mil" altunit="mil"/>
<layers>
<layer number="1" name="Top" color="4" fill="1" visible="yes" active="yes"/>
<layer number="16" name="Bottom" color="14" fill="1" visible="yes" active="yes"/>
<layer number="17" name="Pads" color="2" fill="1" visible="yes" active="yes"/>
<layer number="18" name="Vias" color="2" fill="1" visible="yes" active="yes"/>
<layer number="19" name="Unrouted" color="6" fill="1" visible="yes" active="yes"/>
<layer number="20" name="Dimension" color="15" fill="1" visible="yes" active="yes"/>
<layer number="21" name="tPlace" color="7" fill="1" visible="yes" active="yes"/>
<layer number="22" name="bPlace" color="7" fill="1" visible="yes" active="yes"/>
<layer number="23" name="tOrigins" color="15" fill="1" visible="yes" active="yes"/>
<layer number="24" name="bOrigins" color="15" fill="1" visible="yes" active="yes"/>
<layer number="25" name="tNames" color="7" fill="1" visible="yes" active="yes"/>
<layer number="26" name="bNames" color="7" fill="1" visible="yes" active="yes"/>
<layer number="27" name="tValues" color="7" fill="1" visible="yes" active="yes"/>
<layer number="28" name="bValues" color="7" fill="1" visible="yes" active="yes"/>
<layer number="29" name="tStop" color="7" fill="3" visible="no" active="yes"/>
<layer number="30" name="bStop" color="7" fill="6" visible="no" active="yes"/>
<layer number="31" name="tCream" color="7" fill="4" visible="no" active="yes"/>
<layer number="32" name="bCream" color="7" fill="5" visible="no" active="yes"/>
<layer number="33" name="tFinish" color="6" fill="3" visible="no" active="yes"/>
<layer number="34" name="bFinish" color="6" fill="6" visible="no" active="yes"/>
<layer number="35" name="tGlue" color="7" fill="4" visible="no" active="yes"/>
<layer number="36" name="bGlue" color="7" fill="5" visible="no" active="yes"/>
<layer number="37" name="tTest" color="7" fill="1" visible="no" active="yes"/>
<layer number="38" name="bTest" color="7" fill="1" visible="no" active="yes"/>
<layer number="39" name="tKeepout" color="4" fill="11" visible="yes" active="yes"/>
<layer number="40" name="bKeepout" color="1" fill="11" visible="yes" active="yes"/>
<layer number="41" name="tRestrict" color="4" fill="10" visible="yes" active="yes"/>
<layer number="42" name="bRestrict" color="1" fill="10" visible="yes" active="yes"/>
<layer number="43" name="vRestrict" color="2" fill="10" visible="yes" active="yes"/>
<layer number="44" name="Drills" color="7" fill="1" visible="no" active="yes"/>
<layer number="45" name="Holes" color="7" fill="1" visible="yes" active="yes"/>
<layer number="46" name="Milling" color="3" fill="1" visible="yes" active="yes"/>
<layer number="47" name="Measures" color="7" fill="1" visible="no" active="yes"/>
<layer number="48" name="Document" color="7" fill="1" visible="yes" active="yes"/>
<layer number="49" name="Reference" color="7" fill="1" visible="yes" active="yes"/>
<layer number="51" name="tDocu" color="7" fill="1" visible="yes" active="yes"/>
<layer number="52" name="bDocu" color="7" fill="1" visible="yes" active="yes"/>
<layer number="53" name="tGND_GNDA" color="7" fill="9" visible="no" active="no"/>
<layer number="54" name="bGND_GNDA" color="1" fill="9" visible="no" active="no"/>
<layer number="91" name="Nets" color="2" fill="1" visible="no" active="no"/>
<layer number="92" name="Busses" color="1" fill="1" visible="no" active="no"/>
<layer number="93" name="Pins" color="2" fill="1" visible="no" active="no"/>
<layer number="94" name="Symbols" color="4" fill="1" visible="no" active="no"/>
<layer number="95" name="Names" color="7" fill="1" visible="no" active="no"/>
<layer number="96" name="Values" color="7" fill="1" visible="no" active="no"/>
<layer number="97" name="Info" color="7" fill="1" visible="no" active="no"/>
<layer number="98" name="Guide" color="6" fill="1" visible="no" active="no"/>
</layers>
<board>
<plain>
<wire x1="0" y1="0" x2="52.6925" y2="0" width="0" layer="20"/>
<wire x1="52.6925" y1="0" x2="52.705" y2="33.02" width="0" layer="20"/>
<wire x1="52.705" y1="33.02" x2="0" y2="33.01" width="0" layer="20"/>
<wire x1="0" y1="33.01" x2="0" y2="0" width="0" layer="20"/>
<text x="6.35" y="14.605" size="1.016" layer="25" font="vector" rot="R90" align="bottom-center">GND</text>
<text x="6.35" y="10.795" size="1.016" layer="25" font="vector" rot="R90" align="bottom-center">TX</text>
<text x="6.35" y="8.255" size="1.016" layer="25" font="vector" rot="R90" align="bottom-center">RX</text>
<text x="6.35" y="4.445" size="1.016" layer="25" font="vector" rot="R90" align="bottom-center">+3V3</text>
<text x="18.415" y="0.9525" size="1.4224" layer="25" font="vector" ratio="10">IWING-JN MOTE v1.2</text>
<text x="42.545" y="0.9525" size="1.4224" layer="25" font="vector" ratio="10">CPE, KU</text>
</plain>
<libraries>
<library name="jennic">
<packages>
<package name="IWING-JN-BREAKOUT">
<wire x1="0" y1="0" x2="0" y2="29.21" width="0.254" layer="21"/>
<wire x1="0" y1="29.21" x2="35.56" y2="29.21" width="0.254" layer="21"/>
<wire x1="35.56" y1="29.21" x2="35.56" y2="0" width="0.254" layer="21"/>
<wire x1="35.56" y1="0" x2="0" y2="0" width="0.254" layer="21"/>
<pad name="ADC4" x="2.54" y="25.4" drill="1.016" shape="octagon"/>
<pad name="DAC1" x="5.08" y="25.4" drill="1.016" shape="octagon"/>
<pad name="DAC2" x="2.54" y="22.86" drill="1.016" shape="octagon"/>
<pad name="COMP2+" x="5.08" y="22.86" drill="1.016" shape="octagon"/>
<pad name="COMP2-" x="2.54" y="20.32" drill="1.016" shape="octagon"/>
<pad name="SPICLK" x="5.08" y="20.32" drill="1.016" shape="octagon"/>
<pad name="SPIMISO" x="2.54" y="17.78" drill="1.016" shape="octagon"/>
<pad name="SPIMOSI" x="5.08" y="17.78" drill="1.016" shape="octagon"/>
<pad name="SPISSZ" x="2.54" y="15.24" drill="1.016" shape="octagon"/>
<pad name="DIO0" x="5.08" y="15.24" drill="1.016" shape="octagon"/>
<pad name="DIO1" x="2.54" y="12.7" drill="1.016" shape="octagon"/>
<pad name="DIO2" x="5.08" y="12.7" drill="1.016" shape="octagon"/>
<pad name="SPISSM" x="2.54" y="10.16" drill="1.016" shape="octagon"/>
<pad name="SPISWP" x="5.08" y="10.16" drill="1.016" shape="octagon"/>
<pad name="DIO3" x="2.54" y="7.62" drill="1.016" shape="octagon"/>
<pad name="DIO4" x="5.08" y="2.54" drill="1.016" shape="octagon"/>
<pad name="DIO5" x="7.62" y="2.54" drill="1.016" shape="octagon"/>
<pad name="DIO6" x="10.16" y="2.54" drill="1.016" shape="octagon"/>
<pad name="DIO7" x="12.7" y="2.54" drill="1.016" shape="octagon"/>
<pad name="DIO8" x="15.24" y="2.54" drill="1.016" shape="octagon"/>
<pad name="DIO9" x="17.78" y="2.54" drill="1.016" shape="octagon"/>
<pad name="DIO10" x="20.32" y="2.54" drill="1.016" shape="octagon"/>
<pad name="DIO11" x="22.86" y="2.54" drill="1.016" shape="octagon"/>
<pad name="VDD" x="25.4" y="2.54" drill="1.016" shape="octagon"/>
<pad name="GND" x="27.94" y="2.54" drill="1.016" shape="octagon"/>
<pad name="VSSA" x="30.48" y="2.54" drill="1.016" shape="octagon"/>
<pad name="DIO12" x="33.02" y="7.62" drill="1.016" shape="octagon"/>
<pad name="DIO13" x="30.48" y="10.16" drill="1.016" shape="octagon"/>
<pad name="RESETN" x="33.02" y="10.16" drill="1.016" shape="octagon"/>
<pad name="DIO14" x="30.48" y="12.7" drill="1.016" shape="octagon"/>
<pad name="DIO15" x="33.02" y="12.7" drill="1.016" shape="octagon"/>
<pad name="DIO16" x="30.48" y="15.24" drill="1.016" shape="octagon"/>
<pad name="DIO17" x="33.02" y="15.24" drill="1.016" shape="octagon"/>
<pad name="DIO18" x="30.48" y="17.78" drill="1.016" shape="octagon"/>
<pad name="DIO19" x="33.02" y="17.78" drill="1.016" shape="octagon"/>
<pad name="DIO20" x="30.48" y="20.32" drill="1.016" shape="octagon"/>
<pad name="COMP1-" x="33.02" y="20.32" drill="1.016" shape="octagon"/>
<pad name="COMP1+" x="30.48" y="22.86" drill="1.016" shape="octagon"/>
<pad name="ADC1" x="33.02" y="22.86" drill="1.016" shape="octagon"/>
<pad name="ADC2" x="30.48" y="25.4" drill="1.016" shape="octagon"/>
<pad name="ADC3" x="33.02" y="25.4" drill="1.016" shape="octagon"/>
<pad name="NA1" x="5.08" y="7.62" drill="1.016" shape="octagon"/>
<pad name="NA2" x="30.48" y="7.62" drill="1.016" shape="octagon"/>
<wire x1="8.89" y1="6.35" x2="8.89" y2="35.56" width="0.254" layer="51" style="shortdash"/>
<wire x1="8.89" y1="35.56" x2="26.67" y2="35.56" width="0.254" layer="51" style="shortdash"/>
<wire x1="26.67" y1="35.56" x2="26.67" y2="6.35" width="0.254" layer="51" style="shortdash"/>
<wire x1="26.67" y1="6.35" x2="8.89" y2="6.35" width="0.254" layer="51" style="shortdash"/>
<rectangle x1="4.826" y1="2.286" x2="5.334" y2="2.794" layer="51" rot="R90"/>
<rectangle x1="25.146" y1="2.286" x2="25.654" y2="2.794" layer="51" rot="R90"/>
<rectangle x1="7.366" y1="2.286" x2="7.874" y2="2.794" layer="51" rot="R90"/>
<rectangle x1="27.686" y1="2.286" x2="28.194" y2="2.794" layer="51" rot="R90"/>
<rectangle x1="9.906" y1="2.286" x2="10.414" y2="2.794" layer="51" rot="R90"/>
<rectangle x1="30.226" y1="2.286" x2="30.734" y2="2.794" layer="51" rot="R90"/>
<rectangle x1="12.446" y1="2.286" x2="12.954" y2="2.794" layer="51" rot="R90"/>
<rectangle x1="14.986" y1="2.286" x2="15.494" y2="2.794" layer="51" rot="R90"/>
<rectangle x1="17.526" y1="2.286" x2="18.034" y2="2.794" layer="51" rot="R90"/>
<rectangle x1="20.066" y1="2.286" x2="20.574" y2="2.794" layer="51" rot="R90"/>
<rectangle x1="22.606" y1="2.286" x2="23.114" y2="2.794" layer="51" rot="R90"/>
<rectangle x1="2.286" y1="25.146" x2="2.794" y2="25.654" layer="51"/>
<rectangle x1="4.826" y1="25.146" x2="5.334" y2="25.654" layer="51"/>
<rectangle x1="2.286" y1="22.606" x2="2.794" y2="23.114" layer="51"/>
<rectangle x1="4.826" y1="22.606" x2="5.334" y2="23.114" layer="51"/>
<rectangle x1="2.286" y1="20.066" x2="2.794" y2="20.574" layer="51"/>
<rectangle x1="4.826" y1="20.066" x2="5.334" y2="20.574" layer="51"/>
<rectangle x1="2.286" y1="17.526" x2="2.794" y2="18.034" layer="51"/>
<rectangle x1="4.826" y1="17.526" x2="5.334" y2="18.034" layer="51"/>
<rectangle x1="2.286" y1="14.986" x2="2.794" y2="15.494" layer="51"/>
<rectangle x1="4.826" y1="14.986" x2="5.334" y2="15.494" layer="51"/>
<rectangle x1="2.286" y1="12.446" x2="2.794" y2="12.954" layer="51"/>
<rectangle x1="4.826" y1="12.446" x2="5.334" y2="12.954" layer="51"/>
<rectangle x1="2.286" y1="9.906" x2="2.794" y2="10.414" layer="51"/>
<rectangle x1="4.826" y1="9.906" x2="5.334" y2="10.414" layer="51"/>
<rectangle x1="2.286" y1="7.366" x2="2.794" y2="7.874" layer="51"/>
<rectangle x1="4.826" y1="7.366" x2="5.334" y2="7.874" layer="51"/>
<rectangle x1="30.226" y1="25.146" x2="30.734" y2="25.654" layer="51"/>
<rectangle x1="32.766" y1="25.146" x2="33.274" y2="25.654" layer="51"/>
<rectangle x1="30.226" y1="22.606" x2="30.734" y2="23.114" layer="51"/>
<rectangle x1="32.766" y1="22.606" x2="33.274" y2="23.114" layer="51"/>
<rectangle x1="30.226" y1="20.066" x2="30.734" y2="20.574" layer="51"/>
<rectangle x1="32.766" y1="20.066" x2="33.274" y2="20.574" layer="51"/>
<rectangle x1="30.226" y1="17.526" x2="30.734" y2="18.034" layer="51"/>
<rectangle x1="32.766" y1="17.526" x2="33.274" y2="18.034" layer="51"/>
<rectangle x1="30.226" y1="14.986" x2="30.734" y2="15.494" layer="51"/>
<rectangle x1="32.766" y1="14.986" x2="33.274" y2="15.494" layer="51"/>
<rectangle x1="30.226" y1="12.446" x2="30.734" y2="12.954" layer="51"/>
<rectangle x1="32.766" y1="12.446" x2="33.274" y2="12.954" layer="51"/>
<rectangle x1="30.226" y1="9.906" x2="30.734" y2="10.414" layer="51"/>
<rectangle x1="32.766" y1="9.906" x2="33.274" y2="10.414" layer="51"/>
<rectangle x1="30.226" y1="7.366" x2="30.734" y2="7.874" layer="51"/>
<rectangle x1="32.766" y1="7.366" x2="33.274" y2="7.874" layer="51"/>
</package>
</packages>
</library>
<library name="pinhead">
<packages>
<package name="1X04">
<description>&lt;b&gt;PIN HEADER&lt;/b&gt;</description>
<wire x1="0" y1="0.635" x2="0.635" y2="1.27" width="0.1524" layer="21"/>
<wire x1="0.635" y1="1.27" x2="1.905" y2="1.27" width="0.1524" layer="21"/>
<wire x1="1.905" y1="1.27" x2="2.54" y2="0.635" width="0.1524" layer="21"/>
<wire x1="2.54" y1="0.635" x2="2.54" y2="-0.635" width="0.1524" layer="21"/>
<wire x1="2.54" y1="-0.635" x2="1.905" y2="-1.27" width="0.1524" layer="21"/>
<wire x1="1.905" y1="-1.27" x2="0.635" y2="-1.27" width="0.1524" layer="21"/>
<wire x1="0.635" y1="-1.27" x2="0" y2="-0.635" width="0.1524" layer="21"/>
<wire x1="-4.445" y1="1.27" x2="-3.175" y2="1.27" width="0.1524" layer="21"/>
<wire x1="-3.175" y1="1.27" x2="-2.54" y2="0.635" width="0.1524" layer="21"/>
<wire x1="-2.54" y1="0.635" x2="-2.54" y2="-0.635" width="0.1524" layer="21"/>
<wire x1="-2.54" y1="-0.635" x2="-3.175" y2="-1.27" width="0.1524" layer="21"/>
<wire x1="-2.54" y1="0.635" x2="-1.905" y2="1.27" width="0.1524" layer="21"/>
<wire x1="-1.905" y1="1.27" x2="-0.635" y2="1.27" width="0.1524" layer="21"/>
<wire x1="-0.635" y1="1.27" x2="0" y2="0.635" width="0.1524" layer="21"/>
<wire x1="0" y1="0.635" x2="0" y2="-0.635" width="0.1524" layer="21"/>
<wire x1="0" y1="-0.635" x2="-0.635" y2="-1.27" width="0.1524" layer="21"/>
<wire x1="-0.635" y1="-1.27" x2="-1.905" y2="-1.27" width="0.1524" layer="21"/>
<wire x1="-1.905" y1="-1.27" x2="-2.54" y2="-0.635" width="0.1524" layer="21"/>
<wire x1="-5.08" y1="0.635" x2="-5.08" y2="-0.635" width="0.1524" layer="21"/>
<wire x1="-4.445" y1="1.27" x2="-5.08" y2="0.635" width="0.1524" layer="21"/>
<wire x1="-5.08" y1="-0.635" x2="-4.445" y2="-1.27" width="0.1524" layer="21"/>
<wire x1="-3.175" y1="-1.27" x2="-4.445" y2="-1.27" width="0.1524" layer="21"/>
<wire x1="3.175" y1="1.27" x2="4.445" y2="1.27" width="0.1524" layer="21"/>
<wire x1="4.445" y1="1.27" x2="5.08" y2="0.635" width="0.1524" layer="21"/>
<wire x1="5.08" y1="0.635" x2="5.08" y2="-0.635" width="0.1524" layer="21"/>
<wire x1="5.08" y1="-0.635" x2="4.445" y2="-1.27" width="0.1524" layer="21"/>
<wire x1="3.175" y1="1.27" x2="2.54" y2="0.635" width="0.1524" layer="21"/>
<wire x1="2.54" y1="-0.635" x2="3.175" y2="-1.27" width="0.1524" layer="21"/>
<wire x1="4.445" y1="-1.27" x2="3.175" y2="-1.27" width="0.1524" layer="21"/>
<pad name="1" x="-3.81" y="0" drill="1.016" shape="long" rot="R90"/>
<pad name="2" x="-1.27" y="0" drill="1.016" shape="long" rot="R90"/>
<pad name="3" x="1.27" y="0" drill="1.016" shape="long" rot="R90"/>
<pad name="4" x="3.81" y="0" drill="1.016" shape="long" rot="R90"/>
<text x="-5.1562" y="1.8288" size="1.27" layer="25" ratio="10">&gt;NAME</text>
<text x="-5.08" y="-3.175" size="1.27" layer="27">&gt;VALUE</text>
<rectangle x1="1.016" y1="-0.254" x2="1.524" y2="0.254" layer="51"/>
<rectangle x1="-1.524" y1="-0.254" x2="-1.016" y2="0.254" layer="51"/>
<rectangle x1="-4.064" y1="-0.254" x2="-3.556" y2="0.254" layer="51"/>
<rectangle x1="3.556" y1="-0.254" x2="4.064" y2="0.254" layer="51"/>
</package>
</packages>
</library>
<library name="rcl">
<packages>
<package name="0204/5">
<description>&lt;b&gt;RESISTOR&lt;/b&gt;&lt;p&gt;
type 0204, grid 5 mm</description>
<wire x1="2.54" y1="0" x2="2.032" y2="0" width="0.508" layer="51"/>
<wire x1="-2.54" y1="0" x2="-2.032" y2="0" width="0.508" layer="51"/>
<wire x1="-1.778" y1="0.635" x2="-1.524" y2="0.889" width="0.1524" layer="21" curve="-90"/>
<wire x1="-1.778" y1="-0.635" x2="-1.524" y2="-0.889" width="0.1524" layer="21" curve="90"/>
<wire x1="1.524" y1="-0.889" x2="1.778" y2="-0.635" width="0.1524" layer="21" curve="90"/>
<wire x1="1.524" y1="0.889" x2="1.778" y2="0.635" width="0.1524" layer="21" curve="-90"/>
<wire x1="-1.778" y1="-0.635" x2="-1.778" y2="0.635" width="0.1524" layer="51"/>
<wire x1="-1.524" y1="0.889" x2="-1.27" y2="0.889" width="0.1524" layer="21"/>
<wire x1="-1.143" y1="0.762" x2="-1.27" y2="0.889" width="0.1524" layer="21"/>
<wire x1="-1.524" y1="-0.889" x2="-1.27" y2="-0.889" width="0.1524" layer="21"/>
<wire x1="-1.143" y1="-0.762" x2="-1.27" y2="-0.889" width="0.1524" layer="21"/>
<wire x1="1.143" y1="0.762" x2="1.27" y2="0.889" width="0.1524" layer="21"/>
<wire x1="1.143" y1="0.762" x2="-1.143" y2="0.762" width="0.1524" layer="21"/>
<wire x1="1.143" y1="-0.762" x2="1.27" y2="-0.889" width="0.1524" layer="21"/>
<wire x1="1.143" y1="-0.762" x2="-1.143" y2="-0.762" width="0.1524" layer="21"/>
<wire x1="1.524" y1="0.889" x2="1.27" y2="0.889" width="0.1524" layer="21"/>
<wire x1="1.524" y1="-0.889" x2="1.27" y2="-0.889" width="0.1524" layer="21"/>
<wire x1="1.778" y1="-0.635" x2="1.778" y2="0.635" width="0.1524" layer="51"/>
<pad name="1" x="-2.54" y="0" drill="0.8128" shape="octagon"/>
<pad name="2" x="2.54" y="0" drill="0.8128" shape="octagon"/>
<text x="-2.0066" y="1.1684" size="0.9906" layer="25" ratio="12">&gt;NAME</text>
<text x="-2.1336" y="-2.3114" size="0.9906" layer="27" ratio="12">&gt;VALUE</text>
<rectangle x1="-2.032" y1="-0.254" x2="-1.778" y2="0.254" layer="51"/>
<rectangle x1="1.778" y1="-0.254" x2="2.032" y2="0.254" layer="51"/>
</package>
</packages>
</library>
<library name="led">
<packages>
<package name="LED3MM">
<description>&lt;B&gt;LED&lt;/B&gt;&lt;p&gt;
3 mm, round</description>
<wire x1="1.5748" y1="-1.27" x2="1.5748" y2="1.27" width="0.254" layer="51"/>
<wire x1="-1.524" y1="0" x2="-1.1708" y2="0.9756" width="0.1524" layer="51" curve="-39.80361"/>
<wire x1="-1.524" y1="0" x2="-1.1391" y2="-1.0125" width="0.1524" layer="51" curve="41.633208"/>
<wire x1="1.1571" y1="0.9918" x2="1.524" y2="0" width="0.1524" layer="51" curve="-40.601165"/>
<wire x1="1.1708" y1="-0.9756" x2="1.524" y2="0" width="0.1524" layer="51" curve="39.80361"/>
<wire x1="0" y1="1.524" x2="1.2401" y2="0.8858" width="0.1524" layer="21" curve="-54.461337"/>
<wire x1="-1.2192" y1="0.9144" x2="0" y2="1.524" width="0.1524" layer="21" curve="-53.130102"/>
<wire x1="0" y1="-1.524" x2="1.203" y2="-0.9356" width="0.1524" layer="21" curve="52.126876"/>
<wire x1="-1.203" y1="-0.9356" x2="0" y2="-1.524" width="0.1524" layer="21" curve="52.126876"/>
<wire x1="-0.635" y1="0" x2="0" y2="0.635" width="0.1524" layer="51" curve="-90"/>
<wire x1="-1.016" y1="0" x2="0" y2="1.016" width="0.1524" layer="51" curve="-90"/>
<wire x1="0" y1="-0.635" x2="0.635" y2="0" width="0.1524" layer="51" curve="90"/>
<wire x1="0" y1="-1.016" x2="1.016" y2="0" width="0.1524" layer="51" curve="90"/>
<wire x1="0" y1="2.032" x2="1.561" y2="1.3009" width="0.254" layer="21" curve="-50.193108"/>
<wire x1="-1.7929" y1="0.9562" x2="0" y2="2.032" width="0.254" layer="21" curve="-61.926949"/>
<wire x1="0" y1="-2.032" x2="1.5512" y2="-1.3126" width="0.254" layer="21" curve="49.763022"/>
<wire x1="-1.7643" y1="-1.0082" x2="0" y2="-2.032" width="0.254" layer="21" curve="60.255215"/>
<wire x1="-2.032" y1="0" x2="-1.7891" y2="0.9634" width="0.254" layer="51" curve="-28.301701"/>
<wire x1="-2.032" y1="0" x2="-1.7306" y2="-1.065" width="0.254" layer="51" curve="31.60822"/>
<pad name="A" x="-1.27" y="0" drill="0.8128" shape="octagon"/>
<pad name="K" x="1.27" y="0" drill="0.8128" shape="octagon"/>
<text x="1.905" y="0.381" size="1.27" layer="25" ratio="10">&gt;NAME</text>
<text x="1.905" y="-1.651" size="1.27" layer="27" ratio="10">&gt;VALUE</text>
</package>
</packages>
</library>
<library name="switch-tact">
<packages>
<package name="DTS-6">
<wire x1="-3.1" y1="3.1" x2="3.1" y2="3.1" width="0.2032" layer="51"/>
<wire x1="3.1" y1="3.1" x2="3.1" y2="-3.1" width="0.2032" layer="51"/>
<wire x1="3.1" y1="-3.1" x2="-3.1" y2="-3.1" width="0.2032" layer="51"/>
<wire x1="-3.1" y1="-3.1" x2="-3.1" y2="3.1" width="0.2032" layer="51"/>
<wire x1="1.5" y1="3.1" x2="-1.5" y2="3.1" width="0.2032" layer="21"/>
<wire x1="3.1" y1="-1" x2="3.1" y2="1" width="0.2032" layer="21"/>
<wire x1="1.5" y1="-3.1" x2="-1.5" y2="-3.1" width="0.2032" layer="21"/>
<wire x1="-3.1" y1="-1" x2="-3.1" y2="1" width="0.2032" layer="21"/>
<circle x="0" y="0" radius="1.75" width="0.2032" layer="51"/>
<circle x="0" y="0" radius="1.75" width="0.2032" layer="21"/>
<pad name="1" x="-3.25" y="2.25" drill="1" shape="long"/>
<pad name="2" x="3.25" y="2.25" drill="1" shape="long"/>
<pad name="3" x="-3.25" y="-2.25" drill="1" shape="long"/>
<pad name="4" x="3.25" y="-2.25" drill="1" shape="long"/>
<text x="-2.54" y="3.81" size="1.27" layer="25">&gt;NAME</text>
<text x="-2.54" y="-5.08" size="1.27" layer="27">&gt;VALUE</text>
</package>
</packages>
</library>
</libraries>
<attributes>
</attributes>
<variantdefs>
</variantdefs>
<classes>
<class number="0" name="default" width="0" drill="0">
</class>
</classes>
<designrules>
<description language="de">&lt;b&gt;EAGLE Design Rules&lt;/b&gt;
&lt;p&gt;
Die Standard-Design-Rules sind so gewählt, dass sie für 
die meisten Anwendungen passen. Sollte ihre Platine 
besondere Anforderungen haben, treffen Sie die erforderlichen
Einstellungen hier und speichern die Design Rules unter 
einem neuen Namen ab.</description>
<description language="en">&lt;b&gt;EAGLE Design Rules&lt;/b&gt;
&lt;p&gt;
The default Design Rules have been set to cover
a wide range of applications. Your particular design
may have different requirements, so please make the
necessary adjustments and save your customized
design rules under a new name.</description>
<param name="layerSetup" value="(1*16)"/>
<param name="mtCopper" value="0.035mm 0.035mm 0.035mm 0.035mm 0.035mm 0.035mm 0.035mm 0.035mm 0.035mm 0.035mm 0.035mm 0.035mm 0.035mm 0.035mm 0.035mm 0.035mm"/>
<param name="mtIsolate" value="1.5mm 0.15mm 0.2mm 0.15mm 0.2mm 0.15mm 0.2mm 0.15mm 0.2mm 0.15mm 0.2mm 0.15mm 0.2mm 0.15mm 0.2mm"/>
<param name="mdWireWire" value="10mil"/>
<param name="mdWirePad" value="10mil"/>
<param name="mdWireVia" value="10mil"/>
<param name="mdPadPad" value="10mil"/>
<param name="mdPadVia" value="10mil"/>
<param name="mdViaVia" value="10mil"/>
<param name="mdSmdPad" value="0.1mm"/>
<param name="mdSmdVia" value="0.1mm"/>
<param name="mdSmdSmd" value="0.1mm"/>
<param name="mdViaViaSameLayer" value="8mil"/>
<param name="mnLayersViaInSmd" value="2"/>
<param name="mdCopperDimension" value="40mil"/>
<param name="mdDrill" value="8mil"/>
<param name="mdSmdStop" value="0mil"/>
<param name="msWidth" value="10mil"/>
<param name="msDrill" value="12mil"/>
<param name="msMicroVia" value="9.99mm"/>
<param name="msBlindViaRatio" value="0.5"/>
<param name="rvPadTop" value="0.25"/>
<param name="rvPadInner" value="0.25"/>
<param name="rvPadBottom" value="0.25"/>
<param name="rvViaOuter" value="0.25"/>
<param name="rvViaInner" value="0.25"/>
<param name="rvMicroViaOuter" value="0.25"/>
<param name="rvMicroViaInner" value="0.25"/>
<param name="rlMinPadTop" value="10mil"/>
<param name="rlMaxPadTop" value="20mil"/>
<param name="rlMinPadInner" value="10mil"/>
<param name="rlMaxPadInner" value="20mil"/>
<param name="rlMinPadBottom" value="10mil"/>
<param name="rlMaxPadBottom" value="20mil"/>
<param name="rlMinViaOuter" value="8mil"/>
<param name="rlMaxViaOuter" value="20mil"/>
<param name="rlMinViaInner" value="8mil"/>
<param name="rlMaxViaInner" value="20mil"/>
<param name="rlMinMicroViaOuter" value="4mil"/>
<param name="rlMaxMicroViaOuter" value="20mil"/>
<param name="rlMinMicroViaInner" value="4mil"/>
<param name="rlMaxMicroViaInner" value="20mil"/>
<param name="psTop" value="-1"/>
<param name="psBottom" value="-1"/>
<param name="psFirst" value="-1"/>
<param name="psElongationLong" value="100"/>
<param name="psElongationOffset" value="100"/>
<param name="mvStopFrame" value="1"/>
<param name="mvCreamFrame" value="0"/>
<param name="mlMinStopFrame" value="4mil"/>
<param name="mlMaxStopFrame" value="4mil"/>
<param name="mlMinCreamFrame" value="0mil"/>
<param name="mlMaxCreamFrame" value="0mil"/>
<param name="mlViaStopLimit" value="25mil"/>
<param name="srRoundness" value="0"/>
<param name="srMinRoundness" value="0mil"/>
<param name="srMaxRoundness" value="0mil"/>
<param name="slThermalIsolate" value="10mil"/>
<param name="slThermalsForVias" value="0"/>
<param name="dpMaxLengthDifference" value="10mm"/>
<param name="dpGapFactor" value="2.5"/>
<param name="checkGrid" value="0"/>
<param name="checkAngle" value="0"/>
<param name="checkFont" value="1"/>
<param name="checkRestrict" value="1"/>
<param name="useDiameter" value="13"/>
<param name="maxErrors" value="50"/>
</designrules>
<autorouter>
<pass name="Default">
<param name="RoutingGrid" value="25mil"/>
<param name="tpViaShape" value="round"/>
<param name="PrefDir.1" value="0"/>
<param name="PrefDir.2" value="0"/>
<param name="PrefDir.3" value="0"/>
<param name="PrefDir.4" value="0"/>
<param name="PrefDir.5" value="0"/>
<param name="PrefDir.6" value="0"/>
<param name="PrefDir.7" value="0"/>
<param name="PrefDir.8" value="0"/>
<param name="PrefDir.9" value="0"/>
<param name="PrefDir.10" value="0"/>
<param name="PrefDir.11" value="0"/>
<param name="PrefDir.12" value="0"/>
<param name="PrefDir.13" value="0"/>
<param name="PrefDir.14" value="0"/>
<param name="PrefDir.15" value="0"/>
<param name="PrefDir.16" value="*"/>
<param name="cfVia" value="8"/>
<param name="cfNonPref" value="5"/>
<param name="cfChangeDir" value="2"/>
<param name="cfOrthStep" value="2"/>
<param name="cfDiagStep" value="3"/>
<param name="cfExtdStep" value="0"/>
<param name="cfBonusStep" value="1"/>
<param name="cfMalusStep" value="1"/>
<param name="cfPadImpact" value="4"/>
<param name="cfSmdImpact" value="4"/>
<param name="cfBusImpact" value="0"/>
<param name="cfHugging" value="3"/>
<param name="cfAvoid" value="4"/>
<param name="cfPolygon" value="10"/>
<param name="cfBase.1" value="0"/>
<param name="cfBase.2" value="1"/>
<param name="cfBase.3" value="1"/>
<param name="cfBase.4" value="1"/>
<param name="cfBase.5" value="1"/>
<param name="cfBase.6" value="1"/>
<param name="cfBase.7" value="1"/>
<param name="cfBase.8" value="1"/>
<param name="cfBase.9" value="1"/>
<param name="cfBase.10" value="1"/>
<param name="cfBase.11" value="1"/>
<param name="cfBase.12" value="1"/>
<param name="cfBase.13" value="1"/>
<param name="cfBase.14" value="1"/>
<param name="cfBase.15" value="1"/>
<param name="cfBase.16" value="0"/>
<param name="mnVias" value="20"/>
<param name="mnSegments" value="9999"/>
<param name="mnExtdSteps" value="9999"/>
<param name="mnRipupLevel" value="10"/>
<param name="mnRipupSteps" value="100"/>
<param name="mnRipupTotal" value="100"/>
</pass>
<pass name="Follow-me" refer="Default" active="yes">
</pass>
<pass name="Busses" refer="Default" active="yes">
<param name="cfNonPref" value="4"/>
<param name="cfBusImpact" value="4"/>
<param name="cfHugging" value="0"/>
<param name="mnVias" value="0"/>
</pass>
<pass name="Route" refer="Default" active="yes">
</pass>
<pass name="Optimize1" refer="Default" active="yes">
<param name="cfVia" value="99"/>
<param name="cfExtdStep" value="10"/>
<param name="cfHugging" value="1"/>
<param name="mnExtdSteps" value="1"/>
<param name="mnRipupLevel" value="0"/>
</pass>
<pass name="Optimize2" refer="Optimize1" active="yes">
<param name="cfNonPref" value="0"/>
<param name="cfChangeDir" value="6"/>
<param name="cfExtdStep" value="0"/>
<param name="cfBonusStep" value="2"/>
<param name="cfMalusStep" value="2"/>
<param name="cfPadImpact" value="2"/>
<param name="cfSmdImpact" value="2"/>
<param name="cfHugging" value="0"/>
</pass>
<pass name="Optimize3" refer="Optimize2" active="yes">
<param name="cfChangeDir" value="8"/>
<param name="cfPadImpact" value="0"/>
<param name="cfSmdImpact" value="0"/>
</pass>
<pass name="Optimize4" refer="Optimize3" active="yes">
<param name="cfChangeDir" value="25"/>
</pass>
</autorouter>
<elements>
<element name="U$1" library="jennic" package="IWING-JN-BREAKOUT" value="JN5139-Z01-M00R1BREAKOUT" x="17.145" y="3.175"/>
<element name="S1" library="switch-tact" package="DTS-6" value="RESET" x="11.43" y="6.985" smashed="yes" rot="R90">
<attribute name="VALUE" x="8.89" y="1.5875" size="1.27" layer="27" font="vector" ratio="10"/>
</element>
<element name="S2" library="switch-tact" package="DTS-6" value="PROG" x="11.43" y="17.78" smashed="yes" rot="R270">
<attribute name="VALUE" x="9.3345" y="12.3825" size="1.27" layer="27" font="vector" ratio="10"/>
</element>
<element name="JP3" library="pinhead" package="1X04" value="" x="3.175" y="9.525" smashed="yes" rot="R270">
<attribute name="VALUE" x="0" y="14.605" size="1.27" layer="27" rot="R270"/>
</element>
<element name="R1" library="rcl" package="0204/5" value="3k3" x="24.765" y="10.16" smashed="yes" rot="R270">
<attribute name="VALUE" x="24.3586" y="11.6586" size="0.9906" layer="27" ratio="12" rot="R270"/>
</element>
<element name="R4" library="rcl" package="0204/5" value="330" x="8.255" y="27.305" smashed="yes" rot="R270">
<attribute name="VALUE" x="7.8486" y="28.4861" size="0.9906" layer="27" ratio="12" rot="R270"/>
</element>
<element name="2" library="led" package="LED3MM" value="" x="3.81" y="19.685" smashed="yes" rot="R180">
<attribute name="NAME" x="5.715" y="21.0185" size="1.27" layer="25" ratio="10"/>
<attribute name="VALUE" x="1.905" y="21.336" size="1.27" layer="27" ratio="10" rot="R180"/>
</element>
<element name="R3" library="rcl" package="0204/5" value="330" x="10.795" y="27.305" smashed="yes" rot="R270">
<attribute name="VALUE" x="10.3886" y="28.4861" size="0.9906" layer="27" ratio="12" rot="R270"/>
</element>
<element name="1" library="led" package="LED3MM" value="" x="3.81" y="24.13" smashed="yes" rot="R180">
<attribute name="NAME" x="6.0325" y="25.146" size="1.27" layer="25" ratio="10"/>
<attribute name="VALUE" x="1.905" y="25.781" size="1.27" layer="27" ratio="10" rot="R180"/>
</element>
<element name="R2" library="rcl" package="0204/5" value="330" x="13.335" y="27.305" smashed="yes" rot="R270">
<attribute name="VALUE" x="12.9286" y="28.4861" size="0.9906" layer="27" ratio="12" rot="R270"/>
</element>
<element name="0" library="led" package="LED3MM" value="" x="3.81" y="28.575" smashed="yes" rot="R180">
<attribute name="NAME" x="5.715" y="29.5275" size="1.27" layer="25" font="vector"/>
<attribute name="VALUE" x="1.27" y="29.845" size="1.27" layer="27" rot="R270"/>
</element>
</elements>
<signals>
<signal name="GND">
<contactref element="U$1" pad="GND"/>
<contactref element="U$1" pad="VSSA"/>
<contactref element="S1" pad="2"/>
<contactref element="JP3" pad="1"/>
<contactref element="2" pad="K"/>
<contactref element="1" pad="K"/>
<contactref element="0" pad="K"/>
<wire x1="47.625" y1="5.715" x2="45.085" y2="5.715" width="0.4064" layer="16"/>
<wire x1="2.54" y1="24.13" x2="2.54" y2="19.685" width="0.4064" layer="16"/>
<wire x1="2.54" y1="24.13" x2="2.54" y2="28.575" width="0.4064" layer="16"/>
<wire x1="51.435" y1="9.525" x2="47.625" y2="5.715" width="0.4064" layer="16"/>
<wire x1="51.435" y1="29.845" x2="51.435" y2="9.525" width="0.4064" layer="16"/>
<wire x1="49.53" y1="31.75" x2="51.435" y2="29.845" width="0.4064" layer="16"/>
<wire x1="5.715" y1="31.75" x2="49.53" y2="31.75" width="0.4064" layer="16"/>
<wire x1="2.54" y1="28.575" x2="5.715" y2="31.75" width="0.4064" layer="16"/>
<wire x1="3.175" y1="19.05" x2="3.175" y2="13.335" width="0.4064" layer="16"/>
<wire x1="2.54" y1="19.685" x2="3.175" y2="19.05" width="0.4064" layer="16"/>
<contactref element="S2" pad="2"/>
<wire x1="9.18" y1="10.235" x2="6.08" y2="13.335" width="0.4064" layer="16"/>
<wire x1="6.08" y1="13.335" x2="3.175" y2="13.335" width="0.4064" layer="16"/>
<wire x1="9.18" y1="10.235" x2="11.43" y2="12.485" width="0.254" layer="16"/>
<wire x1="11.43" y1="12.485" x2="11.43" y2="13.335" width="0.254" layer="16"/>
<wire x1="13.68" y1="14.53" x2="13.12" y2="13.97" width="0.254" layer="16"/>
<wire x1="13.12" y1="13.97" x2="12.065" y2="13.97" width="0.254" layer="16"/>
<wire x1="12.065" y1="13.97" x2="11.43" y2="13.335" width="0.254" layer="16"/>
</signal>
<signal name="+3V3">
<contactref element="U$1" pad="VDD"/>
<contactref element="JP3" pad="4"/>
<contactref element="R1" pad="2"/>
<wire x1="40.64" y1="7.62" x2="42.545" y2="5.715" width="0.4064" layer="16"/>
<wire x1="31.115" y1="4.445" x2="27.94" y2="1.27" width="0.4064" layer="16"/>
<wire x1="27.94" y1="1.27" x2="7.62" y2="1.27" width="0.4064" layer="16"/>
<wire x1="3.175" y1="5.715" x2="7.62" y2="1.27" width="0.4064" layer="16"/>
<wire x1="31.115" y1="4.445" x2="31.115" y2="6.985" width="0.4064" layer="16"/>
<wire x1="31.115" y1="6.985" x2="31.75" y2="7.62" width="0.4064" layer="16"/>
<wire x1="31.75" y1="7.62" x2="40.64" y2="7.62" width="0.4064" layer="16"/>
<wire x1="24.765" y1="7.62" x2="30.48" y2="7.62" width="0.254" layer="16"/>
<wire x1="30.48" y1="7.62" x2="31.115" y2="6.985" width="0.254" layer="16"/>
</signal>
<signal name="SPIMISO">
<contactref element="S2" pad="3"/>
<contactref element="U$1" pad="SPIMISO"/>
<wire x1="17.145" y1="20.955" x2="19.685" y2="20.955" width="0.254" layer="16"/>
<wire x1="14.605" y1="23.495" x2="17.145" y2="20.955" width="0.254" layer="16"/>
<wire x1="10.795" y1="23.495" x2="14.605" y2="23.495" width="0.254" layer="16"/>
<wire x1="9.18" y1="21.03" x2="9.18" y2="21.88" width="0.254" layer="16"/>
<wire x1="9.18" y1="21.88" x2="10.795" y2="23.495" width="0.254" layer="16"/>
</signal>
<signal name="RESETN">
<contactref element="S1" pad="4"/>
<contactref element="U$1" pad="RESETN"/>
<wire x1="48.895" y1="12.065" x2="50.165" y2="13.335" width="0.254" layer="16"/>
<wire x1="13.68" y1="10.235" x2="15.51" y2="12.065" width="0.254" layer="16"/>
<wire x1="15.51" y1="12.065" x2="22.86" y2="12.065" width="0.254" layer="16"/>
<wire x1="22.86" y1="12.065" x2="23.495" y2="11.43" width="0.254" layer="16"/>
<wire x1="23.495" y1="11.43" x2="45.72" y2="11.43" width="0.254" layer="16"/>
<wire x1="45.72" y1="11.43" x2="46.355" y2="12.065" width="0.254" layer="16"/>
<wire x1="46.355" y1="12.065" x2="48.895" y2="12.065" width="0.254" layer="16"/>
</signal>
<signal name="N$6">
<contactref element="R4" pad="1"/>
<contactref element="2" pad="A"/>
<wire x1="5.08" y1="19.685" x2="3.81" y2="20.955" width="0.254" layer="16"/>
<wire x1="3.81" y1="20.955" x2="3.81" y2="25.4" width="0.254" layer="16"/>
<wire x1="3.81" y1="25.4" x2="8.255" y2="29.845" width="0.254" layer="16"/>
</signal>
<signal name="N$1">
<contactref element="R3" pad="1"/>
<contactref element="1" pad="A"/>
<wire x1="5.08" y1="24.13" x2="5.08" y2="25.4" width="0.254" layer="16"/>
<wire x1="5.08" y1="25.4" x2="6.35" y2="26.67" width="0.254" layer="16"/>
<wire x1="6.35" y1="26.67" x2="10.16" y2="26.67" width="0.254" layer="16"/>
<wire x1="10.16" y1="26.67" x2="10.795" y2="27.305" width="0.254" layer="16"/>
<wire x1="10.795" y1="27.305" x2="10.795" y2="29.845" width="0.254" layer="16"/>
</signal>
<signal name="N$2">
<contactref element="R2" pad="1"/>
<contactref element="0" pad="A"/>
<wire x1="5.08" y1="28.575" x2="7.62" y2="31.115" width="0.254" layer="16"/>
<wire x1="7.62" y1="31.115" x2="12.065" y2="31.115" width="0.254" layer="16"/>
<wire x1="12.065" y1="31.115" x2="13.335" y2="29.845" width="0.254" layer="16"/>
</signal>
<signal name="SPISWP">
<contactref element="U$1" pad="SPISWP"/>
<contactref element="R1" pad="1"/>
<wire x1="24.765" y1="12.7" x2="24.13" y2="13.335" width="0.254" layer="16"/>
<wire x1="24.13" y1="13.335" x2="22.225" y2="13.335" width="0.254" layer="16"/>
</signal>
<signal name="LED0">
<contactref element="R2" pad="2"/>
<contactref element="U$1" pad="DIO0"/>
<wire x1="13.335" y1="24.765" x2="22.86" y2="24.765" width="0.254" layer="16"/>
<wire x1="22.86" y1="24.765" x2="23.495" y2="24.13" width="0.254" layer="16"/>
<wire x1="23.495" y1="24.13" x2="23.495" y2="19.685" width="0.254" layer="16"/>
<wire x1="23.495" y1="19.685" x2="22.225" y2="18.415" width="0.254" layer="16"/>
</signal>
<signal name="LED1">
<contactref element="R3" pad="2"/>
<contactref element="U$1" pad="DIO1"/>
<wire x1="10.795" y1="24.765" x2="13.335" y2="27.305" width="0.254" layer="16"/>
<wire x1="13.335" y1="27.305" x2="22.86" y2="27.305" width="0.254" layer="16"/>
<wire x1="22.86" y1="27.305" x2="24.13" y2="26.035" width="0.254" layer="16"/>
<wire x1="24.13" y1="26.035" x2="24.13" y2="18.415" width="0.254" layer="16"/>
<wire x1="24.13" y1="18.415" x2="22.86" y2="17.145" width="0.254" layer="16"/>
<wire x1="22.86" y1="17.145" x2="20.955" y2="17.145" width="0.254" layer="16"/>
<wire x1="20.955" y1="17.145" x2="19.685" y2="15.875" width="0.254" layer="16"/>
</signal>
<signal name="RX">
<contactref element="JP3" pad="3"/>
<contactref element="U$1" pad="DIO7"/>
<wire x1="18.415" y1="5.715" x2="20.955" y2="3.175" width="0.254" layer="16"/>
<wire x1="20.955" y1="3.175" x2="27.305" y2="3.175" width="0.254" layer="16"/>
<wire x1="27.305" y1="3.175" x2="29.845" y2="5.715" width="0.254" layer="16"/>
<wire x1="3.175" y1="8.255" x2="5.08" y2="8.255" width="0.254" layer="16"/>
<wire x1="5.08" y1="8.255" x2="7.62" y2="5.715" width="0.254" layer="16"/>
<wire x1="7.62" y1="5.715" x2="18.415" y2="5.715" width="0.254" layer="16"/>
</signal>
<signal name="TX">
<contactref element="JP3" pad="2"/>
<contactref element="U$1" pad="DIO6"/>
<wire x1="26.035" y1="4.445" x2="27.305" y2="5.715" width="0.254" layer="16"/>
<wire x1="18.415" y1="6.985" x2="20.955" y2="4.445" width="0.254" layer="16"/>
<wire x1="20.955" y1="4.445" x2="26.035" y2="4.445" width="0.254" layer="16"/>
<wire x1="8.89" y1="6.985" x2="18.415" y2="6.985" width="0.254" layer="16"/>
<wire x1="3.175" y1="10.795" x2="5.08" y2="10.795" width="0.254" layer="16"/>
<wire x1="5.08" y1="10.795" x2="8.89" y2="6.985" width="0.254" layer="16"/>
</signal>
<signal name="LED2">
<contactref element="R4" pad="2"/>
<contactref element="U$1" pad="DIO5"/>
<wire x1="24.765" y1="5.715" x2="22.86" y2="7.62" width="0.254" layer="16"/>
<wire x1="22.86" y1="7.62" x2="13.335" y2="7.62" width="0.254" layer="16"/>
<wire x1="13.335" y1="7.62" x2="12.065" y2="8.89" width="0.254" layer="16"/>
<wire x1="12.065" y1="8.89" x2="12.065" y2="11.43" width="0.254" layer="16"/>
<wire x1="12.065" y1="11.43" x2="13.0175" y2="12.3825" width="0.254" layer="16"/>
<wire x1="13.0175" y1="12.3825" x2="14.9225" y2="12.3825" width="0.254" layer="16"/>
<wire x1="14.9225" y1="12.3825" x2="15.875" y2="13.335" width="0.254" layer="16"/>
<wire x1="15.875" y1="13.335" x2="15.875" y2="16.51" width="0.254" layer="16"/>
<wire x1="15.875" y1="16.51" x2="13.97" y2="18.415" width="0.254" layer="16"/>
<wire x1="13.97" y1="18.415" x2="8.255" y2="18.415" width="0.254" layer="16"/>
<wire x1="8.255" y1="18.415" x2="6.985" y2="19.685" width="0.254" layer="16"/>
<wire x1="6.985" y1="19.685" x2="6.985" y2="23.495" width="0.254" layer="16"/>
<wire x1="6.985" y1="23.495" x2="8.255" y2="24.765" width="0.254" layer="16"/>
</signal>
<signal name="N$3">
<contactref element="U$1" pad="SPISSM"/>
<contactref element="U$1" pad="SPISSZ"/>
<wire x1="19.05" y1="13.335" x2="19.685" y2="13.335" width="0.254" layer="16"/>
<wire x1="17.78" y1="14.605" x2="19.05" y2="13.335" width="0.254" layer="16"/>
<wire x1="17.78" y1="17.145" x2="17.78" y2="14.605" width="0.254" layer="16"/>
<wire x1="19.05" y1="18.415" x2="17.78" y2="17.145" width="0.254" layer="16"/>
<wire x1="19.685" y1="18.415" x2="19.05" y2="18.415" width="0.254" layer="16"/>
</signal>
</signals>
</board>
</drawing>
</eagle>
