<?xml version="1.0" encoding="utf-8"?>
<!DOCTYPE eagle SYSTEM "eagle.dtd">
<eagle version="6.2">
<drawing>
<settings>
<setting alwaysvectorfont="no"/>
<setting verticaltext="up"/>
</settings>
<grid distance="25" unitdist="mil" unit="mil" style="lines" multiple="1" display="yes" altdistance="12.5" altunitdist="mil" altunit="mil"/>
<layers>
<layer number="1" name="Top" color="4" fill="1" visible="yes" active="yes"/>
<layer number="16" name="Bottom" color="14" fill="1" visible="yes" active="yes"/>
<layer number="17" name="Pads" color="2" fill="1" visible="yes" active="yes"/>
<layer number="18" name="Vias" color="2" fill="1" visible="yes" active="yes"/>
<layer number="19" name="Unrouted" color="6" fill="1" visible="yes" active="yes"/>
<layer number="20" name="Dimension" color="15" fill="1" visible="yes" active="yes"/>
<layer number="21" name="tPlace" color="7" fill="1" visible="yes" active="yes"/>
<layer number="22" name="bPlace" color="7" fill="1" visible="yes" active="yes"/>
<layer number="23" name="tOrigins" color="15" fill="1" visible="yes" active="yes"/>
<layer number="24" name="bOrigins" color="15" fill="1" visible="yes" active="yes"/>
<layer number="25" name="tNames" color="7" fill="1" visible="yes" active="yes"/>
<layer number="26" name="bNames" color="7" fill="1" visible="yes" active="yes"/>
<layer number="27" name="tValues" color="7" fill="1" visible="yes" active="yes"/>
<layer number="28" name="bValues" color="7" fill="1" visible="yes" active="yes"/>
<layer number="29" name="tStop" color="7" fill="3" visible="no" active="yes"/>
<layer number="30" name="bStop" color="7" fill="6" visible="no" active="yes"/>
<layer number="31" name="tCream" color="7" fill="4" visible="no" active="yes"/>
<layer number="32" name="bCream" color="7" fill="5" visible="no" active="yes"/>
<layer number="33" name="tFinish" color="6" fill="3" visible="no" active="yes"/>
<layer number="34" name="bFinish" color="6" fill="6" visible="no" active="yes"/>
<layer number="35" name="tGlue" color="7" fill="4" visible="no" active="yes"/>
<layer number="36" name="bGlue" color="7" fill="5" visible="no" active="yes"/>
<layer number="37" name="tTest" color="7" fill="1" visible="no" active="yes"/>
<layer number="38" name="bTest" color="7" fill="1" visible="no" active="yes"/>
<layer number="39" name="tKeepout" color="4" fill="11" visible="yes" active="yes"/>
<layer number="40" name="bKeepout" color="1" fill="11" visible="yes" active="yes"/>
<layer number="41" name="tRestrict" color="4" fill="10" visible="yes" active="yes"/>
<layer number="42" name="bRestrict" color="1" fill="10" visible="yes" active="yes"/>
<layer number="43" name="vRestrict" color="2" fill="10" visible="yes" active="yes"/>
<layer number="44" name="Drills" color="7" fill="1" visible="no" active="yes"/>
<layer number="45" name="Holes" color="7" fill="1" visible="yes" active="yes"/>
<layer number="46" name="Milling" color="3" fill="1" visible="yes" active="yes"/>
<layer number="47" name="Measures" color="7" fill="1" visible="no" active="yes"/>
<layer number="48" name="Document" color="7" fill="1" visible="yes" active="yes"/>
<layer number="49" name="Reference" color="7" fill="1" visible="yes" active="yes"/>
<layer number="50" name="dxf" color="7" fill="1" visible="yes" active="yes"/>
<layer number="51" name="tDocu" color="7" fill="1" visible="yes" active="yes"/>
<layer number="52" name="bDocu" color="7" fill="1" visible="yes" active="yes"/>
<layer number="53" name="tGND_GNDA" color="7" fill="9" visible="no" active="no"/>
<layer number="54" name="bGND_GNDA" color="1" fill="9" visible="no" active="no"/>
<layer number="56" name="wert" color="7" fill="1" visible="yes" active="yes"/>
<layer number="91" name="Nets" color="2" fill="1" visible="no" active="no"/>
<layer number="92" name="Busses" color="1" fill="1" visible="no" active="no"/>
<layer number="93" name="Pins" color="2" fill="1" visible="no" active="no"/>
<layer number="94" name="Symbols" color="4" fill="1" visible="no" active="no"/>
<layer number="95" name="Names" color="7" fill="1" visible="no" active="no"/>
<layer number="96" name="Values" color="7" fill="1" visible="no" active="no"/>
<layer number="97" name="Info" color="7" fill="1" visible="no" active="no"/>
<layer number="98" name="Guide" color="6" fill="1" visible="no" active="no"/>
<layer number="100" name="Muster" color="7" fill="1" visible="no" active="no"/>
<layer number="101" name="Patch_Top" color="12" fill="4" visible="yes" active="yes"/>
<layer number="102" name="Vscore" color="7" fill="1" visible="yes" active="yes"/>
<layer number="103" name="fp3" color="7" fill="1" visible="no" active="yes"/>
<layer number="104" name="Name" color="7" fill="1" visible="yes" active="yes"/>
<layer number="105" name="Beschreib" color="9" fill="1" visible="yes" active="yes"/>
<layer number="106" name="BGA-Top" color="4" fill="1" visible="yes" active="yes"/>
<layer number="107" name="BD-Top" color="5" fill="1" visible="yes" active="yes"/>
<layer number="108" name="fp8" color="7" fill="1" visible="no" active="yes"/>
<layer number="109" name="fp9" color="7" fill="1" visible="no" active="yes"/>
<layer number="110" name="fp0" color="7" fill="1" visible="no" active="yes"/>
<layer number="111" name="LPC17xx" color="7" fill="1" visible="yes" active="yes"/>
<layer number="116" name="Patch_BOT" color="9" fill="4" visible="yes" active="yes"/>
<layer number="121" name="_tsilk" color="7" fill="1" visible="yes" active="yes"/>
<layer number="122" name="_bsilk" color="7" fill="1" visible="yes" active="yes"/>
<layer number="123" name="tTestmark" color="7" fill="1" visible="no" active="yes"/>
<layer number="124" name="bTestmark" color="7" fill="1" visible="no" active="yes"/>
<layer number="125" name="_tNames" color="7" fill="1" visible="yes" active="yes"/>
<layer number="131" name="tAdjust" color="7" fill="1" visible="no" active="yes"/>
<layer number="132" name="bAdjust" color="7" fill="1" visible="no" active="yes"/>
<layer number="144" name="Drill_legend" color="7" fill="1" visible="yes" active="yes"/>
<layer number="151" name="HeatSink" color="7" fill="1" visible="yes" active="yes"/>
<layer number="199" name="Contour" color="7" fill="1" visible="yes" active="yes"/>
<layer number="200" name="200bmp" color="1" fill="10" visible="no" active="no"/>
<layer number="201" name="201bmp" color="2" fill="1" visible="no" active="no"/>
<layer number="202" name="202bmp" color="3" fill="1" visible="no" active="no"/>
<layer number="203" name="203bmp" color="4" fill="10" visible="yes" active="yes"/>
<layer number="204" name="204bmp" color="5" fill="10" visible="yes" active="yes"/>
<layer number="205" name="205bmp" color="6" fill="10" visible="yes" active="yes"/>
<layer number="206" name="206bmp" color="7" fill="10" visible="yes" active="yes"/>
<layer number="207" name="207bmp" color="8" fill="10" visible="yes" active="yes"/>
<layer number="208" name="208bmp" color="9" fill="10" visible="yes" active="yes"/>
<layer number="209" name="209bmp" color="7" fill="1" visible="no" active="yes"/>
<layer number="210" name="210bmp" color="7" fill="1" visible="no" active="yes"/>
<layer number="211" name="211bmp" color="7" fill="1" visible="yes" active="yes"/>
<layer number="212" name="212bmp" color="7" fill="1" visible="yes" active="yes"/>
<layer number="213" name="213bmp" color="7" fill="1" visible="yes" active="yes"/>
<layer number="214" name="214bmp" color="7" fill="1" visible="yes" active="yes"/>
<layer number="215" name="215bmp" color="7" fill="1" visible="yes" active="yes"/>
<layer number="216" name="216bmp" color="7" fill="1" visible="yes" active="yes"/>
<layer number="250" name="Descript" color="3" fill="1" visible="no" active="no"/>
<layer number="251" name="SMDround" color="12" fill="11" visible="no" active="no"/>
<layer number="254" name="cooling" color="7" fill="1" visible="yes" active="yes"/>
</layers>
<board>
<plain>
<wire x1="0" y1="0" x2="58.7375" y2="0" width="0" layer="20"/>
<wire x1="58.7375" y1="0" x2="58.7375" y2="30.48" width="0" layer="20"/>
<wire x1="58.7375" y1="30.48" x2="0" y2="30.48" width="0" layer="20"/>
<wire x1="0" y1="30.48" x2="0" y2="0" width="0" layer="20"/>
<text x="5.715" y="2.2225" size="1.016" layer="51" font="vector" rot="R270" align="bottom-center">GND</text>
<text x="5.715" y="5.08" size="1.016" layer="51" font="vector" rot="R270" align="bottom-center">TX</text>
<text x="5.715" y="7.62" size="1.016" layer="51" font="vector" rot="R270" align="bottom-center">RX</text>
<text x="5.715" y="10.4775" size="1.016" layer="51" font="vector" rot="R270" align="bottom-center">3V3</text>
<text x="20.955" y="28.2575" size="1.27" layer="51" font="vector" ratio="10">IWING-JN MOTE v2</text>
<text x="41.275" y="28.2575" size="1.27" layer="51" font="vector" ratio="10">CPE,KU</text>
<text x="6.985" y="28.2575" size="1.016" layer="51" font="vector" ratio="10">3V3</text>
<text x="14.2875" y="26.67" size="1.016" layer="51" font="vector" ratio="10" align="center-right">1</text>
<text x="20.955" y="2.2225" size="1.016" layer="51" font="vector" ratio="10" rot="R180" align="bottom-center">10</text>
<text x="14.2875" y="6.35" size="1.016" layer="51" font="vector" ratio="10" align="center-right">9</text>
<text x="41.275" y="2.2225" size="1.016" layer="51" font="vector" ratio="10" rot="R180" align="bottom-center">18</text>
<text x="47.9425" y="6.35" size="0.8128" layer="51" font="vector" ratio="10" rot="R180" align="center-right">19</text>
<text x="47.9425" y="26.035" size="0.8128" layer="51" font="vector" ratio="10" rot="R180" align="center-right">27</text>
<text x="3.81" y="15.875" size="1.016" layer="51" font="vector" ratio="10" rot="R180" align="bottom-center">GND</text>
</plain>
<libraries>
<library name="jennic">
<packages>
<package name="IWING-JN-BREAKOUT-5168">
<wire x1="0" y1="22.86" x2="28.02" y2="22.86" width="0.254" layer="21"/>
<wire x1="28.02" y1="22.86" x2="28.02" y2="0" width="0.254" layer="21"/>
<wire x1="28.02" y1="0" x2="0" y2="0" width="0.254" layer="21"/>
<pad name="ADC1" x="1.27" y="21.59" drill="1.016" shape="octagon"/>
<wire x1="6.365" y1="6.3175" x2="6.365" y2="36.3175" width="0.254" layer="48" style="shortdash"/>
<wire x1="6.365" y1="36.3175" x2="22.365" y2="36.3175" width="0.254" layer="48" style="shortdash"/>
<wire x1="22.365" y1="36.3175" x2="22.365" y2="6.3175" width="0.254" layer="48" style="shortdash"/>
<wire x1="22.365" y1="6.3175" x2="6.365" y2="6.3175" width="0.254" layer="48" style="shortdash"/>
<rectangle x1="3.556" y1="1.016" x2="4.064" y2="1.524" layer="51" rot="R90"/>
<rectangle x1="23.876" y1="1.016" x2="24.384" y2="1.524" layer="51" rot="R90"/>
<rectangle x1="6.096" y1="1.016" x2="6.604" y2="1.524" layer="51" rot="R90"/>
<rectangle x1="8.636" y1="1.016" x2="9.144" y2="1.524" layer="51" rot="R90"/>
<rectangle x1="11.176" y1="1.016" x2="11.684" y2="1.524" layer="51" rot="R90"/>
<rectangle x1="13.716" y1="1.016" x2="14.224" y2="1.524" layer="51" rot="R90"/>
<rectangle x1="16.256" y1="1.016" x2="16.764" y2="1.524" layer="51" rot="R90"/>
<rectangle x1="18.796" y1="1.016" x2="19.304" y2="1.524" layer="51" rot="R90"/>
<rectangle x1="21.336" y1="1.016" x2="21.844" y2="1.524" layer="51" rot="R90"/>
<rectangle x1="1.016" y1="21.336" x2="1.524" y2="21.844" layer="51"/>
<rectangle x1="1.016" y1="18.796" x2="1.524" y2="19.304" layer="51"/>
<rectangle x1="1.016" y1="16.256" x2="1.524" y2="16.764" layer="51"/>
<rectangle x1="1.016" y1="13.716" x2="1.524" y2="14.224" layer="51"/>
<rectangle x1="1.016" y1="11.176" x2="1.524" y2="11.684" layer="51"/>
<rectangle x1="1.016" y1="8.636" x2="1.524" y2="9.144" layer="51"/>
<rectangle x1="1.016" y1="6.096" x2="1.524" y2="6.604" layer="51"/>
<rectangle x1="1.016" y1="1.016" x2="1.524" y2="1.524" layer="51"/>
<rectangle x1="1.016" y1="3.556" x2="1.524" y2="4.064" layer="51"/>
<rectangle x1="26.416" y1="21.336" x2="26.924" y2="21.844" layer="51"/>
<rectangle x1="26.416" y1="18.796" x2="26.924" y2="19.304" layer="51"/>
<rectangle x1="26.416" y1="16.256" x2="26.924" y2="16.764" layer="51"/>
<rectangle x1="26.416" y1="13.716" x2="26.924" y2="14.224" layer="51"/>
<rectangle x1="26.416" y1="11.176" x2="26.924" y2="11.684" layer="51"/>
<rectangle x1="26.416" y1="8.636" x2="26.924" y2="9.144" layer="51"/>
<rectangle x1="26.416" y1="6.096" x2="26.924" y2="6.604" layer="51"/>
<rectangle x1="26.416" y1="3.556" x2="26.924" y2="4.064" layer="51"/>
<rectangle x1="26.416" y1="1.016" x2="26.924" y2="1.524" layer="51"/>
<pad name="SPICLK" x="1.27" y="19.05" drill="1.016" shape="octagon"/>
<pad name="SPIMISO" x="1.27" y="16.51" drill="1.016" shape="octagon"/>
<pad name="SPIMOSI" x="1.27" y="13.97" drill="1.016" shape="octagon"/>
<pad name="SPISSZ" x="1.27" y="11.43" drill="1.016" shape="octagon"/>
<pad name="DIO0" x="1.27" y="8.89" drill="1.016" shape="octagon"/>
<pad name="DIO1" x="1.27" y="6.35" drill="1.016" shape="octagon"/>
<pad name="DIO2" x="1.27" y="3.81" drill="1.016" shape="octagon"/>
<pad name="DIO3" x="1.27" y="1.27" drill="1.016" shape="octagon"/>
<pad name="DIO4" x="3.81" y="1.27" drill="1.016" shape="octagon"/>
<pad name="DIO5" x="6.35" y="1.27" drill="1.016" shape="octagon"/>
<pad name="DIO6" x="8.89" y="1.27" drill="1.016" shape="octagon"/>
<pad name="ADC2" x="26.67" y="21.59" drill="1.016" shape="octagon"/>
<pad name="DIO17" x="26.67" y="19.05" drill="1.016" shape="octagon"/>
<pad name="DIO16" x="26.67" y="16.51" drill="1.016" shape="octagon"/>
<pad name="DIO15" x="26.67" y="13.97" drill="1.016" shape="octagon"/>
<pad name="DIO14" x="26.67" y="11.43" drill="1.016" shape="octagon"/>
<pad name="RESETN" x="26.67" y="8.89" drill="1.016" shape="octagon"/>
<pad name="DIO13" x="26.67" y="6.35" drill="1.016" shape="octagon"/>
<pad name="DIO12" x="26.67" y="3.81" drill="1.016" shape="octagon"/>
<pad name="DIO11" x="26.67" y="1.27" drill="1.016" shape="octagon"/>
<pad name="DIO7" x="11.43" y="1.27" drill="1.016" shape="octagon"/>
<pad name="DIO8" x="13.97" y="1.27" drill="1.016" shape="octagon"/>
<pad name="DIO9" x="16.51" y="1.27" drill="1.016" shape="octagon"/>
<pad name="DIO10" x="19.05" y="1.27" drill="1.016" shape="octagon"/>
<pad name="VDD" x="21.59" y="1.27" drill="1.016" shape="octagon"/>
<pad name="GND" x="24.13" y="1.27" drill="1.016" shape="octagon"/>
<wire x1="25.4" y1="22.86" x2="25.4" y2="2.54" width="0.4064" layer="21"/>
<wire x1="25.4" y1="2.54" x2="2.54" y2="2.54" width="0.4064" layer="21"/>
<wire x1="2.54" y1="2.54" x2="2.54" y2="22.86" width="0.4064" layer="21"/>
<wire x1="2.54" y1="22.86" x2="0" y2="22.86" width="0.4064" layer="21"/>
<wire x1="0" y1="22.86" x2="0" y2="0" width="0.4064" layer="21"/>
<wire x1="0" y1="0" x2="27.94" y2="0" width="0.4064" layer="21"/>
<wire x1="27.94" y1="0" x2="27.94" y2="22.86" width="0.4064" layer="21"/>
<wire x1="27.94" y1="22.86" x2="25.4" y2="22.86" width="0.4064" layer="21"/>
</package>
</packages>
</library>
<library name="pinhead">
<packages>
<package name="1X04">
<description>&lt;b&gt;PIN HEADER&lt;/b&gt;</description>
<wire x1="0" y1="0.635" x2="0.635" y2="1.27" width="0.1524" layer="21"/>
<wire x1="0.635" y1="1.27" x2="1.905" y2="1.27" width="0.1524" layer="21"/>
<wire x1="1.905" y1="1.27" x2="2.54" y2="0.635" width="0.1524" layer="21"/>
<wire x1="2.54" y1="0.635" x2="2.54" y2="-0.635" width="0.1524" layer="21"/>
<wire x1="2.54" y1="-0.635" x2="1.905" y2="-1.27" width="0.1524" layer="21"/>
<wire x1="1.905" y1="-1.27" x2="0.635" y2="-1.27" width="0.1524" layer="21"/>
<wire x1="0.635" y1="-1.27" x2="0" y2="-0.635" width="0.1524" layer="21"/>
<wire x1="-4.445" y1="1.27" x2="-3.175" y2="1.27" width="0.1524" layer="21"/>
<wire x1="-3.175" y1="1.27" x2="-2.54" y2="0.635" width="0.1524" layer="21"/>
<wire x1="-2.54" y1="0.635" x2="-2.54" y2="-0.635" width="0.1524" layer="21"/>
<wire x1="-2.54" y1="-0.635" x2="-3.175" y2="-1.27" width="0.1524" layer="21"/>
<wire x1="-2.54" y1="0.635" x2="-1.905" y2="1.27" width="0.1524" layer="21"/>
<wire x1="-1.905" y1="1.27" x2="-0.635" y2="1.27" width="0.1524" layer="21"/>
<wire x1="-0.635" y1="1.27" x2="0" y2="0.635" width="0.1524" layer="21"/>
<wire x1="0" y1="0.635" x2="0" y2="-0.635" width="0.1524" layer="21"/>
<wire x1="0" y1="-0.635" x2="-0.635" y2="-1.27" width="0.1524" layer="21"/>
<wire x1="-0.635" y1="-1.27" x2="-1.905" y2="-1.27" width="0.1524" layer="21"/>
<wire x1="-1.905" y1="-1.27" x2="-2.54" y2="-0.635" width="0.1524" layer="21"/>
<wire x1="-5.08" y1="0.635" x2="-5.08" y2="-0.635" width="0.1524" layer="21"/>
<wire x1="-4.445" y1="1.27" x2="-5.08" y2="0.635" width="0.1524" layer="21"/>
<wire x1="-5.08" y1="-0.635" x2="-4.445" y2="-1.27" width="0.1524" layer="21"/>
<wire x1="-3.175" y1="-1.27" x2="-4.445" y2="-1.27" width="0.1524" layer="21"/>
<wire x1="3.175" y1="1.27" x2="4.445" y2="1.27" width="0.1524" layer="21"/>
<wire x1="4.445" y1="1.27" x2="5.08" y2="0.635" width="0.1524" layer="21"/>
<wire x1="5.08" y1="0.635" x2="5.08" y2="-0.635" width="0.1524" layer="21"/>
<wire x1="5.08" y1="-0.635" x2="4.445" y2="-1.27" width="0.1524" layer="21"/>
<wire x1="3.175" y1="1.27" x2="2.54" y2="0.635" width="0.1524" layer="21"/>
<wire x1="2.54" y1="-0.635" x2="3.175" y2="-1.27" width="0.1524" layer="21"/>
<wire x1="4.445" y1="-1.27" x2="3.175" y2="-1.27" width="0.1524" layer="21"/>
<pad name="1" x="-3.81" y="0" drill="1.016" shape="long" rot="R90"/>
<pad name="2" x="-1.27" y="0" drill="1.016" shape="long" rot="R90"/>
<pad name="3" x="1.27" y="0" drill="1.016" shape="long" rot="R90"/>
<pad name="4" x="3.81" y="0" drill="1.016" shape="long" rot="R90"/>
<text x="-5.1562" y="1.8288" size="1.27" layer="25" ratio="10">&gt;NAME</text>
<text x="-5.08" y="-3.175" size="1.27" layer="27">&gt;VALUE</text>
<rectangle x1="1.016" y1="-0.254" x2="1.524" y2="0.254" layer="51"/>
<rectangle x1="-1.524" y1="-0.254" x2="-1.016" y2="0.254" layer="51"/>
<rectangle x1="-4.064" y1="-0.254" x2="-3.556" y2="0.254" layer="51"/>
<rectangle x1="3.556" y1="-0.254" x2="4.064" y2="0.254" layer="51"/>
</package>
<package name="1X01">
<description>&lt;b&gt;PIN HEADER&lt;/b&gt;</description>
<wire x1="-0.635" y1="1.27" x2="0.635" y2="1.27" width="0.1524" layer="21"/>
<wire x1="0.635" y1="1.27" x2="1.27" y2="0.635" width="0.1524" layer="21"/>
<wire x1="1.27" y1="0.635" x2="1.27" y2="-0.635" width="0.1524" layer="21"/>
<wire x1="1.27" y1="-0.635" x2="0.635" y2="-1.27" width="0.1524" layer="21"/>
<wire x1="-1.27" y1="0.635" x2="-1.27" y2="-0.635" width="0.1524" layer="21"/>
<wire x1="-0.635" y1="1.27" x2="-1.27" y2="0.635" width="0.1524" layer="21"/>
<wire x1="-1.27" y1="-0.635" x2="-0.635" y2="-1.27" width="0.1524" layer="21"/>
<wire x1="0.635" y1="-1.27" x2="-0.635" y2="-1.27" width="0.1524" layer="21"/>
<pad name="1" x="0" y="0" drill="1.016" shape="octagon"/>
<text x="-1.3462" y="1.8288" size="1.27" layer="25" ratio="10">&gt;NAME</text>
<text x="-1.27" y="-3.175" size="1.27" layer="27">&gt;VALUE</text>
<rectangle x1="-0.254" y1="-0.254" x2="0.254" y2="0.254" layer="51"/>
</package>
</packages>
</library>
<library name="rcl">
<packages>
<package name="0204/5">
<description>&lt;b&gt;RESISTOR&lt;/b&gt;&lt;p&gt;
type 0204, grid 5 mm</description>
<wire x1="2.54" y1="0" x2="2.032" y2="0" width="0.508" layer="51"/>
<wire x1="-2.54" y1="0" x2="-2.032" y2="0" width="0.508" layer="51"/>
<wire x1="-1.778" y1="0.635" x2="-1.524" y2="0.889" width="0.1524" layer="21" curve="-90"/>
<wire x1="-1.778" y1="-0.635" x2="-1.524" y2="-0.889" width="0.1524" layer="21" curve="90"/>
<wire x1="1.524" y1="-0.889" x2="1.778" y2="-0.635" width="0.1524" layer="21" curve="90"/>
<wire x1="1.524" y1="0.889" x2="1.778" y2="0.635" width="0.1524" layer="21" curve="-90"/>
<wire x1="-1.778" y1="-0.635" x2="-1.778" y2="0.635" width="0.1524" layer="51"/>
<wire x1="-1.524" y1="0.889" x2="-1.27" y2="0.889" width="0.1524" layer="21"/>
<wire x1="-1.143" y1="0.762" x2="-1.27" y2="0.889" width="0.1524" layer="21"/>
<wire x1="-1.524" y1="-0.889" x2="-1.27" y2="-0.889" width="0.1524" layer="21"/>
<wire x1="-1.143" y1="-0.762" x2="-1.27" y2="-0.889" width="0.1524" layer="21"/>
<wire x1="1.143" y1="0.762" x2="1.27" y2="0.889" width="0.1524" layer="21"/>
<wire x1="1.143" y1="0.762" x2="-1.143" y2="0.762" width="0.1524" layer="21"/>
<wire x1="1.143" y1="-0.762" x2="1.27" y2="-0.889" width="0.1524" layer="21"/>
<wire x1="1.143" y1="-0.762" x2="-1.143" y2="-0.762" width="0.1524" layer="21"/>
<wire x1="1.524" y1="0.889" x2="1.27" y2="0.889" width="0.1524" layer="21"/>
<wire x1="1.524" y1="-0.889" x2="1.27" y2="-0.889" width="0.1524" layer="21"/>
<wire x1="1.778" y1="-0.635" x2="1.778" y2="0.635" width="0.1524" layer="51"/>
<pad name="1" x="-2.54" y="0" drill="0.8128" shape="octagon"/>
<pad name="2" x="2.54" y="0" drill="0.8128" shape="octagon"/>
<text x="-2.0066" y="1.1684" size="0.9906" layer="25" ratio="12">&gt;NAME</text>
<text x="-2.1336" y="-2.3114" size="0.9906" layer="27" ratio="12">&gt;VALUE</text>
<rectangle x1="-2.032" y1="-0.254" x2="-1.778" y2="0.254" layer="51"/>
<rectangle x1="1.778" y1="-0.254" x2="2.032" y2="0.254" layer="51"/>
</package>
</packages>
</library>
<library name="led">
<packages>
<package name="LED3MM">
<description>&lt;B&gt;LED&lt;/B&gt;&lt;p&gt;
3 mm, round</description>
<wire x1="1.5748" y1="-1.27" x2="1.5748" y2="1.27" width="0.254" layer="51"/>
<wire x1="-1.524" y1="0" x2="-1.1708" y2="0.9756" width="0.1524" layer="51" curve="-39.80361"/>
<wire x1="-1.524" y1="0" x2="-1.1391" y2="-1.0125" width="0.1524" layer="51" curve="41.633208"/>
<wire x1="1.1571" y1="0.9918" x2="1.524" y2="0" width="0.1524" layer="51" curve="-40.601165"/>
<wire x1="1.1708" y1="-0.9756" x2="1.524" y2="0" width="0.1524" layer="51" curve="39.80361"/>
<wire x1="0" y1="1.524" x2="1.2401" y2="0.8858" width="0.1524" layer="21" curve="-54.461337"/>
<wire x1="-1.2192" y1="0.9144" x2="0" y2="1.524" width="0.1524" layer="21" curve="-53.130102"/>
<wire x1="0" y1="-1.524" x2="1.203" y2="-0.9356" width="0.1524" layer="21" curve="52.126876"/>
<wire x1="-1.203" y1="-0.9356" x2="0" y2="-1.524" width="0.1524" layer="21" curve="52.126876"/>
<wire x1="-0.635" y1="0" x2="0" y2="0.635" width="0.1524" layer="51" curve="-90"/>
<wire x1="-1.016" y1="0" x2="0" y2="1.016" width="0.1524" layer="51" curve="-90"/>
<wire x1="0" y1="-0.635" x2="0.635" y2="0" width="0.1524" layer="51" curve="90"/>
<wire x1="0" y1="-1.016" x2="1.016" y2="0" width="0.1524" layer="51" curve="90"/>
<wire x1="0" y1="2.032" x2="1.561" y2="1.3009" width="0.254" layer="21" curve="-50.193108"/>
<wire x1="-1.7929" y1="0.9562" x2="0" y2="2.032" width="0.254" layer="21" curve="-61.926949"/>
<wire x1="0" y1="-2.032" x2="1.5512" y2="-1.3126" width="0.254" layer="21" curve="49.763022"/>
<wire x1="-1.7643" y1="-1.0082" x2="0" y2="-2.032" width="0.254" layer="21" curve="60.255215"/>
<wire x1="-2.032" y1="0" x2="-1.7891" y2="0.9634" width="0.254" layer="51" curve="-28.301701"/>
<wire x1="-2.032" y1="0" x2="-1.7306" y2="-1.065" width="0.254" layer="51" curve="31.60822"/>
<pad name="A" x="-1.27" y="0" drill="0.8128" shape="octagon"/>
<pad name="K" x="1.27" y="0" drill="0.8128" shape="octagon"/>
<text x="1.905" y="0.381" size="1.27" layer="25" ratio="10">&gt;NAME</text>
<text x="1.905" y="-1.651" size="1.27" layer="27" ratio="10">&gt;VALUE</text>
</package>
</packages>
</library>
<library name="switch-tact">
<packages>
<package name="DTS-6">
<wire x1="-3.1" y1="3.1" x2="3.1" y2="3.1" width="0.2032" layer="51"/>
<wire x1="3.1" y1="3.1" x2="3.1" y2="-3.1" width="0.2032" layer="51"/>
<wire x1="3.1" y1="-3.1" x2="-3.1" y2="-3.1" width="0.2032" layer="51"/>
<wire x1="-3.1" y1="-3.1" x2="-3.1" y2="3.1" width="0.2032" layer="51"/>
<wire x1="1.5" y1="3.1" x2="-1.5" y2="3.1" width="0.2032" layer="21"/>
<wire x1="3.1" y1="-1" x2="3.1" y2="1" width="0.2032" layer="21"/>
<wire x1="1.5" y1="-3.1" x2="-1.5" y2="-3.1" width="0.2032" layer="21"/>
<wire x1="-3.1" y1="-1" x2="-3.1" y2="1" width="0.2032" layer="21"/>
<circle x="0" y="0" radius="1.75" width="0.2032" layer="51"/>
<circle x="0" y="0" radius="1.75" width="0.2032" layer="21"/>
<pad name="1" x="-3.25" y="2.25" drill="1" shape="long"/>
<pad name="2" x="3.25" y="2.25" drill="1" shape="long"/>
<pad name="3" x="-3.25" y="-2.25" drill="1" shape="long"/>
<pad name="4" x="3.25" y="-2.25" drill="1" shape="long"/>
<text x="-2.54" y="3.81" size="1.27" layer="25">&gt;NAME</text>
<text x="-2.54" y="-5.08" size="1.27" layer="27">&gt;VALUE</text>
</package>
</packages>
</library>
<library name="microbuilder">
<description>&lt;h2&gt;&lt;b&gt;microBuilder.eu&lt;/b&gt; Eagle Footprint Library&lt;/h2&gt;

&lt;p&gt;Footprints for common components used in our projects and products.  This is the same library that we use internally, and it is regularly updated.  The newest version can always be found at &lt;b&gt;www.microBuilder.eu&lt;/b&gt;.  If you find this library useful, please feel free to purchase something from our online store. Please also note that all holes are optimised for metric drill bits!&lt;/p&gt;

&lt;h3&gt;Obligatory Warning&lt;/h3&gt;
&lt;p&gt;While it probably goes without saying, there are no guarantees that the footprints or schematic symbols in this library are flawless, and we make no promises of fitness for production, prototyping or any other purpose. These libraries are provided for information puposes only, and are used at your own discretion.  While we make every effort to produce accurate footprints, and many of the items found in this library have be proven in production, we can't make any promises of suitability for a specific purpose. If you do find any errors, though, please feel free to contact us at www.microbuilder.eu to let us know about it so that we can update the library accordingly!&lt;/p&gt;

&lt;h3&gt;Revision History&lt;/h3&gt;
&lt;p&gt;
&lt;table width="100%" bgcolor="#EEE"&gt;
&lt;tr bgcolor="#CCC"&gt;
  &lt;td width="60"&gt;
&lt;b&gt;Version&lt;/b&gt;
  &lt;/td&gt;
  &lt;td width="100"&gt;
&lt;b&gt;Release Date&lt;/b&gt;
  &lt;/td&gt;
  &lt;td&gt;
&lt;b&gt;Changes&lt;/b&gt;
  &lt;/td&gt;
&lt;/tr&gt;
&lt;tr&gt;
  &lt;td&gt;1.07&lt;/td&gt;
  &lt;td&gt;--&lt;/td&gt;
  &lt;td&gt;
  Parts Added:
  &lt;ul&gt;
    &lt;li&gt;2N7002PS - Dual N-Channel MOSFET (SOT363)&lt;/li&gt;
    &lt;li&gt;24AA256 - 256K (32K x 8) I2C EEPROM&lt;/li&gt;
    &lt;li&gt;74HC4050D - 6-channel level shifter&lt;/li&gt;
    &lt;li&gt;74LCX245MTC - 8-bit 5.0-3.3V level shifter&lt;/li&gt;
    &lt;li&gt;93LC46B - 1K 16-Bit EEPROM (for FT2232H)&lt;/li&gt;
    &lt;li&gt;A4983 - Stepper Motor Driver&lt;/li&gt;
    &lt;li&gt;AD7780 - 24-Bit Sigma-Delta ADC with 128x PGA&lt;/li&gt;
    &lt;li&gt;ADP3303 - High Accuracy 200 mA LDO&lt;/li&gt;
    &lt;li&gt;ADXL345 - Digital Accelerometer&lt;/li&gt;
    &lt;li&gt;ANT-868-SP - 868MHz SMT Antenna&lt;/li&gt;
    &lt;li&gt;BMP085 - Digital Pressue Sensor&lt;/li&gt;
    &lt;li&gt;FT2232H - Dual High-Speed USB to UART (LQFP64)&lt;/li&gt;
    &lt;li&gt;ILI9481_LCD - 320x480 LCD&lt;/li&gt;
    &lt;li&gt;ISL12022M - Temp Comp. RTC&lt;/li&gt;
    &lt;li&gt;HMC5883L - Digital 3-Axis Compass&lt;/li&gt;
    &lt;li&gt;ITG-3200 - Digital 3-Axis Gyroscope&lt;/li&gt;
    &lt;li&gt;L3G2400D - 3-Axis I²C/SPI Gyroscope&lt;/li&gt;
    &lt;li&gt;LAN8720 - 10/100 Ethernet PHY (QFN-24)&lt;/li&gt;
    &lt;li&gt;LM4811 - Headphone Amplifier&lt;/li&gt;
    &lt;li&gt;LOADCELL - Connectors for 4-wire load cells&lt;/li&gt;
    &lt;li&gt;LPC1227/6/5/4 - Cortex M0 MCU&lt;/li&gt;
    &lt;li&gt;LTC3581 - 3.3A Boost/Inverting DC/DC&lt;/li&gt;
    &lt;li&gt;M25P16 - 16MBit Serial Flash (SPI)&lt;/li&gt;
    &lt;li&gt;MAX3421E - USB Device/Host Controller&lt;/li&gt;
    &lt;li&gt;MCP6022 - Dual 10MHz Op-Amp (SOIC8)&lt;/li&gt;
    &lt;li&gt;MCP73871 - LIPO Battery Charger&lt;/li&gt;
    &lt;li&gt;OL2381 - 315/434/868/915 MHz Transceiver&lt;/li&gt;
    &lt;li&gt;PCF2129A - High Accuracy RTC w/Integrated Crystal&lt;/li&gt;
    &lt;li&gt;SN74AUP - Tri-State Buffer&lt;/li&gt;
    &lt;li&gt;SPX29302 - 3A 1% Adjustable LDO Regulator (TO263)&lt;/li&gt;
    &lt;li&gt;STEREOJACK - 3.5mm Headphone Jack (Courtesy Adafruit)&lt;/li&gt;
    &lt;li&gt;TPS61029 - Boost Converter/li&gt;
    &lt;li&gt;TXS0102 - 2-Bit bi-directional level shifter (I2C)&lt;/li&gt;
    &lt;li&gt;TXB0104PWR - 4-Bit bi-directional level shifter&lt;/li&gt;
    &lt;li&gt;TXB0108PWR - 8-Bit bi-directional level shifter&lt;/li&gt;
    &lt;li&gt;UPD5713TK - 50MHz-2.5GHz SPDT Switch&lt;/li&gt;
    &lt;li&gt;VCNL4000 - Digital Proximity and Light Sensor&lt;/li&gt;
  &lt;/ul&gt;
Parts Updated:
  &lt;ul&gt;
    &lt;li&gt;LPC1754 - Removed 1756+ pin labels (ENET+I2S)&lt;/li&gt;
    &lt;li&gt;JST_2PIN - Added SH-type connector as well&lt;/li&gt;
    &lt;li&gt;LED_RGB_PLCC6 - Changed to CREE CLV61-FKB&lt;/li&gt;
    &lt;li&gt;TSL2561 - Added DFN footprint (CS obsolete)&lt;/li&gt;
  &lt;/ul&gt;
  &lt;br/&gt;
  &lt;/td&gt;
&lt;/tr&gt;
&lt;tr&gt;
  &lt;td&gt;1.06&lt;/td&gt;
  &lt;td&gt;10 August 2010&lt;/td&gt;
  &lt;td&gt;
  Parts Added:
  &lt;ul&gt;
    &lt;li&gt;ADM1191 - I2C Digital Power Monitor&lt;/li&gt;
    &lt;li&gt;ADT7410 - 13-bit +/-0.5°C I2C Temp. Sensor&lt;/li&gt;
    &lt;li&gt;DP83848 - 10/100 Ethernet Transceiver (40-LLP)&lt;/li&gt;
    &lt;li&gt;ILI9325 - 2.8" TFT LCD w/Touch Screen&lt;/li&gt;
    &lt;li&gt;LM358 - SOIC8 OP-AMP&lt;/li&gt;
    &lt;li&gt;LM2671 - 500mA Switching Step-Down Voltage Regulator&lt;/li&gt;
    &lt;li&gt;LPC1768 - 100MHz Cortex M3, 512KB Flash/64KB SRAM&lt;/li&gt;
    &lt;li&gt;LPC313x/314x - ARM926EJ-S MCUs (TFBGA180)&lt;/li&gt;
    &lt;li&gt;LTC3554 - USB Lipo Charger w/Dual Step-Down&lt;/li&gt;
    &lt;li&gt;MBED - MBED footprint and pinout&lt;/li&gt;
    &lt;li&gt;MIC5387 - 3 Output 150mA LDO&lt;/li&gt;
    &lt;li&gt;MICROSD - uSD/Transflash Connector&lt;/li&gt;
    &lt;li&gt;MOSFET-P - P-Channel MOSFET&lt;/li&gt;
    &lt;li&gt;MT48H32M16LF - 512Mb Low-Power SDRAM (VFBGA54)&lt;/li&gt;
    &lt;li&gt;OSCILLATOR - 5x7mm SMT Oscillator&lt;/li&gt;
    &lt;li&gt;S1D13743 - TFT LCD Controller with 464K SRAM&lt;/li&gt;
    &lt;li&gt;VREG_SOT23-5 - Single Part for SOT23-5 Linear Regulators&lt;/li&gt;
  &lt;/ul&gt;
  Parts Updated:
  &lt;ul&gt;
    &lt;li&gt;DCBarrel: Fixed reversed GND/GNDBreak pins on SMT version&lt;/li&gt;
  &lt;/ul&gt;
  &lt;br/&gt;
  &lt;/td&gt;
&lt;/tr&gt;
&lt;tr&gt;
  &lt;td&gt;1.05&lt;/td&gt;
  &lt;td&gt;24 April, 2010&lt;/td&gt;
  &lt;td&gt;
  Parts Added:
  &lt;ul&gt;
    &lt;li&gt;AT25040A - Atmel 1K/4K SPI EEPROM (SOIC8 and TSSOP8)&lt;/li&gt;
    &lt;li&gt;BRIDGERECTIFIER - Comchip C4S-G 400V 800mA Peak 1.1V Vf&lt;/li&gt;
    &lt;li&gt;DIODE-ZENER - Zener Diode&lt;/li&gt;
    &lt;li&gt;FTDIUSBCABLE - Connector for FTDI's TTL-232R USB/RS232 Cable&lt;/li&gt;
    &lt;li&gt;LED_RGB_PLCC4 - PLCC4 RGB LED (Common Anode)&lt;/li&gt;
    &lt;li&gt;LPC1113/4_QFN - LPC1113/LPC1114 in QFN33&lt;/li&gt;
    &lt;li&gt;LD39015xx - Ultra low dropout 150mA voltage regulator&lt;/li&gt;
    &lt;li&gt;MCP24AA32 - Microchip 32K 1.8V I2C EEPROM (SOT23-5)&lt;/li&gt;
    &lt;li&gt;PN532 - 13.56MHz contactless communication transceiver&lt;/li&gt;
    &lt;li&gt;TRANSISTOR_NPN - 500mA 45V NPN Transistor (BC817)&lt;/li&gt;
  &lt;/ul&gt;
  &lt;br/&gt;
  &lt;/td&gt;
&lt;/tr&gt;
&lt;tr&gt;
  &lt;td&gt;1.04&lt;/td&gt;
  &lt;td&gt;14 January, 2010&lt;/td&gt;
  &lt;td&gt;
  Parts Added:
  &lt;ul&gt;
    &lt;li&gt;ANTENNA868MHZ - 868MHz SMT/Chip Antenna&lt;/li&gt;
    &lt;li&gt;AT86RF212 - 700/800/900 MHz Transceiver&lt;/li&gt;
    &lt;li&gt;BALUN - 800-1000 MHz (1206)&lt;/li&gt;
    &lt;li&gt;BALUN+LP - 863-928 MHz Balun with Built-In LP Filter (0805)&lt;/li&gt;
    &lt;li&gt;LOWPASSFILTER - 869MHz RF Low Pass Filter (0603)&lt;/li&gt;
    &lt;li&gt;SMACONNECTOR - 90° DIP SMA Connector&lt;/li&gt;
  &lt;/ul&gt;
  &lt;br/&gt;
  &lt;/td&gt;
&lt;/tr&gt;
&lt;tr&gt;
  &lt;td&gt;1.03&lt;/td&gt;
  &lt;td&gt;15 December 2009&lt;/td&gt;
  &lt;td&gt;
  Parts Added:
  &lt;ul&gt;
    &lt;li&gt;BUTTON_SMT - 4-Pin soft-touch SMT button&lt;/li&gt;
    &lt;li&gt;DIODE - Add SOD-323, SOD-523 Footprints&lt;/li&gt;
    &lt;li&gt;FERRITE - 120 0hm, 600mA Ferrite Chip&lt;/li&gt;
    &lt;li&gt;PSP_LCDOUTLINE - Dimensional Drawing for Sharp LQ043 LCD&lt;/li&gt;
    &lt;li&gt;RJ45 - Ethernet Connector with LEDs and internal transformer&lt;/li&gt;
  &lt;/ul&gt;
Parts Updated:
&lt;ul&gt;
&lt;li&gt;DCBARREL - SMT version updated to improve manufacturability (added tRestrict polygons)&lt;/li&gt;
&lt;li&gt;JTAG-CORTEXM3 - Footprints updated to correspond to real physical dimensions&lt;/li&gt;
&lt;/ul&gt;
  &lt;br/&gt;
  &lt;/td&gt;
&lt;/tr&gt;
&lt;tr&gt;
  &lt;td&gt;1.02&lt;/td&gt;
  &lt;td&gt;26 November 2009&lt;/td&gt;
  &lt;td&gt;
  Parts Added:
  &lt;ul&gt;
    &lt;li&gt;BAT54C - 200mA 30V Dual Schottky Diode (Common Cathode) &lt;/li&gt;
    &lt;li&gt;HEADER-1x20 - 1x20 2.54mm/0.1" Header Pins&lt;/li&gt;
    &lt;li&gt;LPC2478 - 72MHz ARM7 MCU (QFP208 Package)&lt;/li&gt;
    &lt;li&gt;LPC1113/4 - 50MHz Cortex M0 MCU (QFP48 Package)&lt;/li&gt;
    &lt;li&gt;MAX1698 - Step-Up Current Regulator for LED Backlights&lt;/li&gt;
    &lt;li&gt;MT48LC4M16A2P - Micron 64MB SDRAM (4Mb x 16)&lt;/li&gt;
    &lt;li&gt;PTC - 100ma, 250ma and 750mA PTCs&lt;/li&gt;
  &lt;/ul&gt;
  &lt;br/&gt;
  &lt;/td&gt;
&lt;/tr&gt;
&lt;tr&gt;
  &lt;td&gt;1.01&lt;/td&gt;
  &lt;td&gt;14 November 2009&lt;/td&gt;
  &lt;td&gt;
  Parts Added:
  &lt;ul&gt;
    &lt;li&gt;NCP1400A - 100mA PWM Step-Up Regulator (3.3V and 5.0V SOT23-5)&lt;/li&gt;
    &lt;li&gt;MIC5320 - Dual 150mA ULDO Linear Regulator&lt;/li&gt;
    &lt;li&gt;INDUCTOR - 10µH, 22µH and 47µH 1007 Inductors&lt;/li&gt;
  &lt;/ul&gt;
  &lt;br/&gt;
  &lt;/td&gt;
&lt;/tr&gt;
&lt;tr&gt;
  &lt;td&gt;1.00&lt;/td&gt;
  &lt;td&gt;12 November 2009&lt;/td&gt;
  &lt;td&gt;Initial Release&lt;/td&gt;
&lt;/tr&gt;
&lt;/table&gt;
&lt;/p&gt;

&lt;h3&gt;License&lt;/h3&gt;
&lt;p&gt;This work is placed in the public domain, and may be freely used for commercial and non-commercial work with the following conditions:&lt;/p&gt;
&lt;p&gt;THIS SOFTWARE IS PROVIDED ''AS IS'' AND ANY EXPRESS OR IMPLIED WARRANTIES, INCLUDING, BUT NOT LIMITED TO, THE IMPLIED WARRANTIES OF MERCHANTABILITY AND FITNESS FOR A PARTICULAR PURPOSE ARE DISCLAIMED.  IN NO EVENT SHALL THE INSTITUTE OR CONTRIBUTORS BE LIABLE FOR ANY DIRECT, INDIRECT, INCIDENTAL, SPECIAL, EXEMPLARY, OR CONSEQUENTIAL DAMAGES (INCLUDING,  BUT NOT LIMITED TO, PROCUREMENT OF SUBSTITUTE GOODS OR SERVICES; LOSS OF USE, DATA, OR PROFITS; OR BUSINESS INTERRUPTION) HOWEVER CAUSED AND ON ANY THEORY OF LIABILITY, WHETHER IN CONTRACT, STRICT LIABILITY, OR TORT (INCLUDING NEGLIGENCE OR OTHERWISE) ARISING IN ANY WAY OUT OF THE USE OF THIS SOFTWARE, EVEN IF ADVISED OF THE POSSIBILITY OF SUCH DAMAGE.
&lt;/p&gt;</description>
<packages>
<package name="2X05">
<description>&lt;b&gt;PIN HEADER&lt;/b&gt;</description>
<wire x1="-6.35" y1="-1.905" x2="-5.715" y2="-2.54" width="0.1524" layer="21"/>
<wire x1="-4.445" y1="-2.54" x2="-3.81" y2="-1.905" width="0.1524" layer="21"/>
<wire x1="-3.81" y1="-1.905" x2="-3.175" y2="-2.54" width="0.1524" layer="21"/>
<wire x1="-1.905" y1="-2.54" x2="-1.27" y2="-1.905" width="0.1524" layer="21"/>
<wire x1="-1.27" y1="-1.905" x2="-0.635" y2="-2.54" width="0.1524" layer="21"/>
<wire x1="0.635" y1="-2.54" x2="1.27" y2="-1.905" width="0.1524" layer="21"/>
<wire x1="1.27" y1="-1.905" x2="1.905" y2="-2.54" width="0.1524" layer="21"/>
<wire x1="3.175" y1="-2.54" x2="3.81" y2="-1.905" width="0.1524" layer="21"/>
<wire x1="-6.35" y1="-1.905" x2="-6.35" y2="1.905" width="0.1524" layer="21"/>
<wire x1="-6.35" y1="1.905" x2="-5.715" y2="2.54" width="0.1524" layer="21"/>
<wire x1="-5.715" y1="2.54" x2="-4.445" y2="2.54" width="0.1524" layer="21"/>
<wire x1="-4.445" y1="2.54" x2="-3.81" y2="1.905" width="0.1524" layer="21"/>
<wire x1="-3.81" y1="1.905" x2="-3.175" y2="2.54" width="0.1524" layer="21"/>
<wire x1="-3.175" y1="2.54" x2="-1.905" y2="2.54" width="0.1524" layer="21"/>
<wire x1="-1.905" y1="2.54" x2="-1.27" y2="1.905" width="0.1524" layer="21"/>
<wire x1="-1.27" y1="1.905" x2="-0.635" y2="2.54" width="0.1524" layer="21"/>
<wire x1="-0.635" y1="2.54" x2="0.635" y2="2.54" width="0.1524" layer="21"/>
<wire x1="0.635" y1="2.54" x2="1.27" y2="1.905" width="0.1524" layer="21"/>
<wire x1="1.27" y1="1.905" x2="1.905" y2="2.54" width="0.1524" layer="21"/>
<wire x1="1.905" y1="2.54" x2="3.175" y2="2.54" width="0.1524" layer="21"/>
<wire x1="3.175" y1="2.54" x2="3.81" y2="1.905" width="0.1524" layer="21"/>
<wire x1="-3.81" y1="1.905" x2="-3.81" y2="-1.905" width="0.1524" layer="21"/>
<wire x1="-1.27" y1="1.905" x2="-1.27" y2="-1.905" width="0.1524" layer="21"/>
<wire x1="1.27" y1="1.905" x2="1.27" y2="-1.905" width="0.1524" layer="21"/>
<wire x1="3.81" y1="1.905" x2="3.81" y2="-1.905" width="0.1524" layer="21"/>
<wire x1="1.905" y1="-2.54" x2="3.175" y2="-2.54" width="0.1524" layer="21"/>
<wire x1="-0.635" y1="-2.54" x2="0.635" y2="-2.54" width="0.1524" layer="21"/>
<wire x1="-3.175" y1="-2.54" x2="-1.905" y2="-2.54" width="0.1524" layer="21"/>
<wire x1="-5.715" y1="-2.54" x2="-4.445" y2="-2.54" width="0.1524" layer="21"/>
<wire x1="3.81" y1="-1.905" x2="4.445" y2="-2.54" width="0.1524" layer="21"/>
<wire x1="5.715" y1="-2.54" x2="6.35" y2="-1.905" width="0.1524" layer="21"/>
<wire x1="3.81" y1="1.905" x2="4.445" y2="2.54" width="0.1524" layer="21"/>
<wire x1="4.445" y1="2.54" x2="5.715" y2="2.54" width="0.1524" layer="21"/>
<wire x1="5.715" y1="2.54" x2="6.35" y2="1.905" width="0.1524" layer="21"/>
<wire x1="6.35" y1="1.905" x2="6.35" y2="-1.905" width="0.1524" layer="21"/>
<wire x1="4.445" y1="-2.54" x2="5.715" y2="-2.54" width="0.1524" layer="21"/>
<pad name="1" x="-5.08" y="-1.27" drill="1" shape="square"/>
<pad name="2" x="-5.08" y="1.27" drill="1"/>
<pad name="3" x="-2.54" y="-1.27" drill="1"/>
<pad name="4" x="-2.54" y="1.27" drill="1"/>
<pad name="5" x="0" y="-1.27" drill="1"/>
<pad name="6" x="0" y="1.27" drill="1"/>
<pad name="7" x="2.54" y="-1.27" drill="1"/>
<pad name="8" x="2.54" y="1.27" drill="1"/>
<pad name="9" x="5.08" y="-1.27" drill="1"/>
<pad name="10" x="5.08" y="1.27" drill="1"/>
<text x="-6.35" y="3.175" size="1.27" layer="25" ratio="10">&gt;NAME</text>
<text x="-6.35" y="-4.445" size="1.27" layer="27">&gt;VALUE</text>
<rectangle x1="-5.334" y1="-1.524" x2="-4.826" y2="-1.016" layer="51"/>
<rectangle x1="-5.334" y1="1.016" x2="-4.826" y2="1.524" layer="51"/>
<rectangle x1="-2.794" y1="1.016" x2="-2.286" y2="1.524" layer="51"/>
<rectangle x1="-2.794" y1="-1.524" x2="-2.286" y2="-1.016" layer="51"/>
<rectangle x1="-0.254" y1="1.016" x2="0.254" y2="1.524" layer="51"/>
<rectangle x1="-0.254" y1="-1.524" x2="0.254" y2="-1.016" layer="51"/>
<rectangle x1="2.286" y1="1.016" x2="2.794" y2="1.524" layer="51"/>
<rectangle x1="2.286" y1="-1.524" x2="2.794" y2="-1.016" layer="51"/>
<rectangle x1="4.826" y1="1.016" x2="5.334" y2="1.524" layer="51"/>
<rectangle x1="4.826" y1="-1.524" x2="5.334" y2="-1.016" layer="51"/>
</package>
</packages>
</library>
</libraries>
<attributes>
</attributes>
<variantdefs>
</variantdefs>
<classes>
<class number="0" name="default" width="0.254" drill="0">
</class>
</classes>
<designrules>
<description language="de">&lt;b&gt;EAGLE Design Rules&lt;/b&gt;
&lt;p&gt;
Die Standard-Design-Rules sind so gewählt, dass sie für 
die meisten Anwendungen passen. Sollte ihre Platine 
besondere Anforderungen haben, treffen Sie die erforderlichen
Einstellungen hier und speichern die Design Rules unter 
einem neuen Namen ab.</description>
<description language="en">&lt;b&gt;EAGLE Design Rules&lt;/b&gt;
&lt;p&gt;
The default Design Rules have been set to cover
a wide range of applications. Your particular design
may have different requirements, so please make the
necessary adjustments and save your customized
design rules under a new name.</description>
<param name="layerSetup" value="(1*16)"/>
<param name="mtCopper" value="0.035mm 0.035mm 0.035mm 0.035mm 0.035mm 0.035mm 0.035mm 0.035mm 0.035mm 0.035mm 0.035mm 0.035mm 0.035mm 0.035mm 0.035mm 0.035mm"/>
<param name="mtIsolate" value="1.5mm 0.15mm 0.2mm 0.15mm 0.2mm 0.15mm 0.2mm 0.15mm 0.2mm 0.15mm 0.2mm 0.15mm 0.2mm 0.15mm 0.2mm"/>
<param name="mdWireWire" value="10mil"/>
<param name="mdWirePad" value="10mil"/>
<param name="mdWireVia" value="10mil"/>
<param name="mdPadPad" value="10mil"/>
<param name="mdPadVia" value="10mil"/>
<param name="mdViaVia" value="10mil"/>
<param name="mdSmdPad" value="0.1mm"/>
<param name="mdSmdVia" value="0.1mm"/>
<param name="mdSmdSmd" value="0.1mm"/>
<param name="mdViaViaSameLayer" value="8mil"/>
<param name="mnLayersViaInSmd" value="2"/>
<param name="mdCopperDimension" value="40mil"/>
<param name="mdDrill" value="8mil"/>
<param name="mdSmdStop" value="0mil"/>
<param name="msWidth" value="10mil"/>
<param name="msDrill" value="12mil"/>
<param name="msMicroVia" value="9.99mm"/>
<param name="msBlindViaRatio" value="0.5"/>
<param name="rvPadTop" value="0.25"/>
<param name="rvPadInner" value="0.25"/>
<param name="rvPadBottom" value="0.25"/>
<param name="rvViaOuter" value="0.25"/>
<param name="rvViaInner" value="0.25"/>
<param name="rvMicroViaOuter" value="0.25"/>
<param name="rvMicroViaInner" value="0.25"/>
<param name="rlMinPadTop" value="10mil"/>
<param name="rlMaxPadTop" value="20mil"/>
<param name="rlMinPadInner" value="10mil"/>
<param name="rlMaxPadInner" value="20mil"/>
<param name="rlMinPadBottom" value="10mil"/>
<param name="rlMaxPadBottom" value="20mil"/>
<param name="rlMinViaOuter" value="8mil"/>
<param name="rlMaxViaOuter" value="20mil"/>
<param name="rlMinViaInner" value="8mil"/>
<param name="rlMaxViaInner" value="20mil"/>
<param name="rlMinMicroViaOuter" value="4mil"/>
<param name="rlMaxMicroViaOuter" value="20mil"/>
<param name="rlMinMicroViaInner" value="4mil"/>
<param name="rlMaxMicroViaInner" value="20mil"/>
<param name="psTop" value="-1"/>
<param name="psBottom" value="-1"/>
<param name="psFirst" value="-1"/>
<param name="psElongationLong" value="100"/>
<param name="psElongationOffset" value="100"/>
<param name="mvStopFrame" value="1"/>
<param name="mvCreamFrame" value="0"/>
<param name="mlMinStopFrame" value="4mil"/>
<param name="mlMaxStopFrame" value="4mil"/>
<param name="mlMinCreamFrame" value="0mil"/>
<param name="mlMaxCreamFrame" value="0mil"/>
<param name="mlViaStopLimit" value="25mil"/>
<param name="srRoundness" value="0"/>
<param name="srMinRoundness" value="0mil"/>
<param name="srMaxRoundness" value="0mil"/>
<param name="slThermalIsolate" value="10mil"/>
<param name="slThermalsForVias" value="0"/>
<param name="dpMaxLengthDifference" value="10mm"/>
<param name="dpGapFactor" value="2.5"/>
<param name="checkGrid" value="0"/>
<param name="checkAngle" value="0"/>
<param name="checkFont" value="1"/>
<param name="checkRestrict" value="1"/>
<param name="useDiameter" value="13"/>
<param name="maxErrors" value="50"/>
</designrules>
<autorouter>
<pass name="Default">
<param name="RoutingGrid" value="12.5mil"/>
<param name="tpViaShape" value="round"/>
<param name="PrefDir.1" value="0"/>
<param name="PrefDir.2" value="0"/>
<param name="PrefDir.3" value="0"/>
<param name="PrefDir.4" value="0"/>
<param name="PrefDir.5" value="0"/>
<param name="PrefDir.6" value="0"/>
<param name="PrefDir.7" value="0"/>
<param name="PrefDir.8" value="0"/>
<param name="PrefDir.9" value="0"/>
<param name="PrefDir.10" value="0"/>
<param name="PrefDir.11" value="0"/>
<param name="PrefDir.12" value="0"/>
<param name="PrefDir.13" value="0"/>
<param name="PrefDir.14" value="0"/>
<param name="PrefDir.15" value="0"/>
<param name="PrefDir.16" value="*"/>
<param name="cfVia" value="8"/>
<param name="cfNonPref" value="5"/>
<param name="cfChangeDir" value="2"/>
<param name="cfOrthStep" value="2"/>
<param name="cfDiagStep" value="3"/>
<param name="cfExtdStep" value="0"/>
<param name="cfBonusStep" value="1"/>
<param name="cfMalusStep" value="1"/>
<param name="cfPadImpact" value="4"/>
<param name="cfSmdImpact" value="4"/>
<param name="cfBusImpact" value="0"/>
<param name="cfHugging" value="3"/>
<param name="cfAvoid" value="4"/>
<param name="cfPolygon" value="10"/>
<param name="cfBase.1" value="0"/>
<param name="cfBase.2" value="1"/>
<param name="cfBase.3" value="1"/>
<param name="cfBase.4" value="1"/>
<param name="cfBase.5" value="1"/>
<param name="cfBase.6" value="1"/>
<param name="cfBase.7" value="1"/>
<param name="cfBase.8" value="1"/>
<param name="cfBase.9" value="1"/>
<param name="cfBase.10" value="1"/>
<param name="cfBase.11" value="1"/>
<param name="cfBase.12" value="1"/>
<param name="cfBase.13" value="1"/>
<param name="cfBase.14" value="1"/>
<param name="cfBase.15" value="1"/>
<param name="cfBase.16" value="0"/>
<param name="mnVias" value="20"/>
<param name="mnSegments" value="9999"/>
<param name="mnExtdSteps" value="9999"/>
<param name="mnRipupLevel" value="10"/>
<param name="mnRipupSteps" value="100"/>
<param name="mnRipupTotal" value="100"/>
</pass>
<pass name="Follow-me" refer="Default" active="yes">
</pass>
<pass name="Busses" refer="Default" active="yes">
<param name="cfNonPref" value="4"/>
<param name="cfBusImpact" value="4"/>
<param name="cfHugging" value="0"/>
<param name="mnVias" value="0"/>
</pass>
<pass name="Route" refer="Default" active="yes">
</pass>
<pass name="Optimize1" refer="Default" active="yes">
<param name="cfVia" value="99"/>
<param name="cfExtdStep" value="10"/>
<param name="cfHugging" value="1"/>
<param name="mnExtdSteps" value="1"/>
<param name="mnRipupLevel" value="0"/>
</pass>
<pass name="Optimize2" refer="Optimize1" active="yes">
<param name="cfNonPref" value="0"/>
<param name="cfChangeDir" value="6"/>
<param name="cfExtdStep" value="0"/>
<param name="cfBonusStep" value="2"/>
<param name="cfMalusStep" value="2"/>
<param name="cfPadImpact" value="2"/>
<param name="cfSmdImpact" value="2"/>
<param name="cfHugging" value="0"/>
</pass>
<pass name="Optimize3" refer="Optimize2" active="yes">
<param name="cfChangeDir" value="8"/>
<param name="cfPadImpact" value="0"/>
<param name="cfSmdImpact" value="0"/>
</pass>
<pass name="Optimize4" refer="Optimize3" active="yes">
<param name="cfChangeDir" value="25"/>
</pass>
</autorouter>
<elements>
<element name="S1" library="switch-tact" package="DTS-6" value="RESET" x="52.705" y="6.985" smashed="yes" rot="R180">
<attribute name="VALUE" x="52.705" y="3.4925" size="1.27" layer="27" font="vector" ratio="10" rot="R180" align="bottom-center"/>
</element>
<element name="S2" library="switch-tact" package="DTS-6" value="PROG" x="52.705" y="24.765" smashed="yes" rot="R180">
<attribute name="VALUE" x="52.8955" y="21.2725" size="1.27" layer="27" font="vector" ratio="10" rot="R180" align="bottom-center"/>
</element>
<element name="JP3" library="pinhead" package="1X04" value="" x="3.81" y="6.35" smashed="yes" rot="R90">
<attribute name="VALUE" x="6.985" y="1.27" size="1.27" layer="27" rot="R90"/>
</element>
<element name="R4" library="rcl" package="0204/5" value="330" x="24.13" y="12.7" smashed="yes">
<attribute name="VALUE" x="22.9489" y="12.2936" size="0.9906" layer="27" ratio="12"/>
</element>
<element name="2" library="led" package="LED3MM" value="" x="10.16" y="17.78" smashed="yes" rot="R180">
<attribute name="NAME" x="8.255" y="17.7165" size="1.27" layer="51" ratio="10" rot="R180"/>
<attribute name="VALUE" x="8.255" y="19.431" size="1.27" layer="27" ratio="10" rot="R180"/>
</element>
<element name="R3" library="rcl" package="0204/5" value="330" x="24.13" y="10.795" smashed="yes">
<attribute name="VALUE" x="22.9489" y="10.3886" size="0.9906" layer="27" ratio="12"/>
</element>
<element name="1" library="led" package="LED3MM" value="" x="10.16" y="13.335" smashed="yes" rot="R180">
<attribute name="NAME" x="8.255" y="13.2715" size="1.27" layer="51" ratio="10" rot="R180"/>
<attribute name="VALUE" x="8.255" y="14.986" size="1.27" layer="27" ratio="10" rot="R180"/>
</element>
<element name="R2" library="rcl" package="0204/5" value="330" x="24.13" y="8.89" smashed="yes">
<attribute name="VALUE" x="22.9489" y="8.4836" size="0.9906" layer="27" ratio="12"/>
</element>
<element name="0" library="led" package="LED3MM" value="" x="10.16" y="8.89" smashed="yes" rot="R180">
<attribute name="NAME" x="8.255" y="8.89" size="1.27" layer="51" font="vector" rot="R180"/>
<attribute name="VALUE" x="7.62" y="10.16" size="1.27" layer="27" rot="R270"/>
</element>
<element name="U$2" library="jennic" package="IWING-JN-BREAKOUT-5168" value="JN5168-001-M0XBREAKOUT" x="17.145" y="5.08"/>
<element name="JP1" library="microbuilder" package="2X05" value="" x="3.81" y="22.86" smashed="yes" rot="R270">
<attribute name="VALUE" x="-0.635" y="29.21" size="1.27" layer="27" rot="R270"/>
</element>
<element name="S3" library="switch-tact" package="DTS-6" value="USER" x="52.705" y="15.875" smashed="yes" rot="R180">
<attribute name="VALUE" x="52.705" y="12.3825" size="1.27" layer="27" font="vector" ratio="10" align="top-center"/>
</element>
<element name="JP2" library="pinhead" package="1X01" value="" x="15.875" y="13.97" smashed="yes">
<attribute name="VALUE" x="14.605" y="10.795" size="1.27" layer="27"/>
</element>
<element name="JP4" library="pinhead" package="1X01" value="" x="15.875" y="11.43" smashed="yes">
<attribute name="VALUE" x="14.605" y="8.255" size="1.27" layer="27"/>
</element>
<element name="JP5" library="pinhead" package="1X01" value="" x="15.875" y="8.89" smashed="yes">
<attribute name="VALUE" x="14.605" y="5.715" size="1.27" layer="27"/>
</element>
<element name="JP6" library="pinhead" package="1X01" value="" x="15.875" y="6.35" smashed="yes">
<attribute name="VALUE" x="14.605" y="3.175" size="1.27" layer="27"/>
</element>
<element name="JP7" library="pinhead" package="1X01" value="" x="20.955" y="3.81" smashed="yes">
<attribute name="VALUE" x="19.685" y="0.635" size="1.27" layer="27"/>
</element>
<element name="JP8" library="pinhead" package="1X01" value="" x="23.495" y="3.81" smashed="yes">
<attribute name="VALUE" x="22.225" y="0.635" size="1.27" layer="27"/>
</element>
<element name="JP9" library="pinhead" package="1X01" value="" x="26.035" y="3.81" smashed="yes">
<attribute name="VALUE" x="24.765" y="0.635" size="1.27" layer="27"/>
</element>
<element name="JP10" library="pinhead" package="1X01" value="" x="28.575" y="3.81" smashed="yes">
<attribute name="VALUE" x="27.305" y="0.635" size="1.27" layer="27"/>
</element>
<element name="JP11" library="pinhead" package="1X01" value="" x="31.115" y="3.81" smashed="yes">
<attribute name="VALUE" x="29.845" y="0.635" size="1.27" layer="27"/>
</element>
<element name="JP12" library="pinhead" package="1X01" value="" x="33.655" y="3.81" smashed="yes">
<attribute name="VALUE" x="32.385" y="0.635" size="1.27" layer="27"/>
</element>
<element name="JP13" library="pinhead" package="1X01" value="" x="36.195" y="3.81" smashed="yes">
<attribute name="VALUE" x="34.925" y="0.635" size="1.27" layer="27"/>
</element>
<element name="JP14" library="pinhead" package="1X01" value="" x="46.355" y="6.35" smashed="yes">
<attribute name="VALUE" x="45.085" y="3.175" size="1.27" layer="27"/>
</element>
<element name="JP15" library="pinhead" package="1X01" value="" x="46.355" y="8.89" smashed="yes">
<attribute name="VALUE" x="45.085" y="5.715" size="1.27" layer="27"/>
</element>
<element name="JP16" library="pinhead" package="1X01" value="" x="46.355" y="16.51" smashed="yes">
<attribute name="VALUE" x="45.085" y="13.335" size="1.27" layer="27"/>
</element>
<element name="JP17" library="pinhead" package="1X01" value="" x="46.355" y="11.43" smashed="yes">
<attribute name="VALUE" x="45.085" y="8.255" size="1.27" layer="27"/>
</element>
<element name="JP18" library="pinhead" package="1X01" value="" x="46.355" y="19.05" smashed="yes">
<attribute name="VALUE" x="45.085" y="15.875" size="1.27" layer="27"/>
</element>
<element name="JP19" library="pinhead" package="1X01" value="" x="46.355" y="21.59" smashed="yes">
<attribute name="VALUE" x="45.085" y="18.415" size="1.27" layer="27"/>
</element>
<element name="JP20" library="pinhead" package="1X01" value="" x="46.355" y="24.13" smashed="yes">
<attribute name="VALUE" x="45.085" y="20.955" size="1.27" layer="27"/>
</element>
<element name="JP21" library="pinhead" package="1X01" value="" x="15.875" y="16.51" smashed="yes">
<attribute name="VALUE" x="14.605" y="13.335" size="1.27" layer="27"/>
</element>
<element name="JP22" library="pinhead" package="1X01" value="" x="15.875" y="24.13" smashed="yes">
<attribute name="VALUE" x="14.605" y="20.955" size="1.27" layer="27"/>
</element>
<element name="JP23" library="pinhead" package="1X01" value="" x="15.875" y="21.59" smashed="yes">
<attribute name="VALUE" x="14.605" y="18.415" size="1.27" layer="27"/>
</element>
<element name="JP24" library="pinhead" package="1X01" value="" x="46.355" y="13.97" smashed="yes">
<attribute name="VALUE" x="45.085" y="10.795" size="1.27" layer="27"/>
</element>
<element name="JP25" library="pinhead" package="1X01" value="" x="15.875" y="19.05" smashed="yes">
<attribute name="VALUE" x="14.605" y="15.875" size="1.27" layer="27"/>
</element>
<element name="JP26" library="pinhead" package="1X01" value="" x="15.875" y="26.67" smashed="yes">
<attribute name="VALUE" x="14.605" y="23.495" size="1.27" layer="27"/>
</element>
<element name="JP27" library="pinhead" package="1X01" value="" x="46.355" y="26.67" smashed="yes">
<attribute name="VALUE" x="45.085" y="23.495" size="1.27" layer="27"/>
</element>
<element name="JP28" library="pinhead" package="1X01" value="" x="38.735" y="3.81" smashed="yes">
<attribute name="VALUE" x="37.465" y="0.635" size="1.27" layer="27"/>
</element>
<element name="JP29" library="pinhead" package="1X01" value="" x="41.275" y="3.81" smashed="yes">
<attribute name="VALUE" x="40.005" y="0.635" size="1.27" layer="27"/>
</element>
</elements>
<signals>
<signal name="GND">
<contactref element="JP3" pad="1"/>
<contactref element="2" pad="K"/>
<contactref element="1" pad="K"/>
<contactref element="0" pad="K"/>
<contactref element="S2" pad="2"/>
<contactref element="U$2" pad="GND"/>
<contactref element="S1" pad="2"/>
<contactref element="U$2" pad="GND"/>
<contactref element="JP1" pad="10"/>
<contactref element="JP1" pad="9"/>
<wire x1="3.81" y1="2.54" x2="5.08" y2="1.27" width="0.254" layer="16"/>
<wire x1="5.08" y1="1.27" x2="40.005" y2="1.27" width="0.254" layer="16"/>
<wire x1="40.005" y1="1.27" x2="41.275" y2="2.54" width="0.254" layer="16"/>
<wire x1="41.275" y1="2.54" x2="41.275" y2="3.81" width="0.254" layer="16"/>
<wire x1="5.08" y1="17.78" x2="2.54" y2="17.78" width="0.254" layer="16"/>
<wire x1="8.89" y1="13.335" x2="8.89" y2="17.78" width="0.254" layer="16"/>
<wire x1="1.905" y1="8.89" x2="8.89" y2="8.89" width="0.254" layer="16"/>
<wire x1="1.27" y1="8.255" x2="1.905" y2="8.89" width="0.254" layer="16"/>
<wire x1="1.27" y1="3.175" x2="1.27" y2="8.255" width="0.254" layer="16"/>
<wire x1="8.89" y1="13.335" x2="8.89" y2="8.89" width="0.254" layer="16"/>
<wire x1="41.275" y1="6.35" x2="41.275" y2="3.81" width="0.254" layer="16"/>
<wire x1="5.08" y1="17.78" x2="8.89" y2="17.78" width="0.254" layer="16"/>
<wire x1="3.81" y1="2.54" x2="1.905" y2="2.54" width="0.254" layer="16"/>
<wire x1="1.905" y1="2.54" x2="1.27" y2="3.175" width="0.254" layer="16"/>
<contactref element="S3" pad="2"/>
<wire x1="52.705" y1="12.7" x2="52.705" y2="5.715" width="0.254" layer="16"/>
<wire x1="52.705" y1="14.55" x2="52.705" y2="21.59" width="0.254" layer="16"/>
<wire x1="49.455" y1="13.625" x2="51.78" y2="13.625" width="0.254" layer="16"/>
<wire x1="51.78" y1="13.625" x2="52.705" y2="12.7" width="0.254" layer="16"/>
<wire x1="51.78" y1="13.625" x2="52.705" y2="14.55" width="0.254" layer="16"/>
<wire x1="49.455" y1="22.515" x2="51.78" y2="22.515" width="0.254" layer="16"/>
<wire x1="51.78" y1="22.515" x2="52.705" y2="21.59" width="0.254" layer="16"/>
<wire x1="49.455" y1="4.735" x2="51.725" y2="4.735" width="0.254" layer="16"/>
<wire x1="51.725" y1="4.735" x2="52.705" y2="5.715" width="0.254" layer="16"/>
<contactref element="JP29" pad="1"/>
<wire x1="49.455" y1="4.735" x2="48.53" y2="3.81" width="0.254" layer="16"/>
<wire x1="48.53" y1="3.81" x2="41.275" y2="3.81" width="0.254" layer="16"/>
</signal>
<signal name="+3V3">
<contactref element="JP3" pad="4"/>
<contactref element="U$2" pad="VDD"/>
<contactref element="JP1" pad="2"/>
<contactref element="JP1" pad="1"/>
<wire x1="5.08" y1="27.94" x2="2.54" y2="27.94" width="0.254" layer="16"/>
<wire x1="1.27" y1="26.67" x2="1.27" y2="12.7" width="0.254" layer="16"/>
<wire x1="14.605" y1="20.955" x2="15.24" y2="20.32" width="0.254" layer="16"/>
<wire x1="14.605" y1="24.765" x2="14.605" y2="20.955" width="0.254" layer="16"/>
<wire x1="15.24" y1="25.4" x2="14.605" y2="24.765" width="0.254" layer="16"/>
<wire x1="19.05" y1="25.4" x2="15.24" y2="25.4" width="0.254" layer="16"/>
<wire x1="19.685" y1="26.035" x2="19.05" y2="25.4" width="0.254" layer="16"/>
<wire x1="19.685" y1="27.305" x2="19.685" y2="26.035" width="0.254" layer="16"/>
<wire x1="19.05" y1="27.94" x2="19.685" y2="27.305" width="0.254" layer="16"/>
<wire x1="5.08" y1="27.94" x2="19.05" y2="27.94" width="0.254" layer="16"/>
<wire x1="2.54" y1="27.94" x2="1.27" y2="26.67" width="0.254" layer="16"/>
<wire x1="3.81" y1="10.16" x2="1.27" y2="12.7" width="0.254" layer="16"/>
<wire x1="15.24" y1="20.32" x2="19.685" y2="20.32" width="0.254" layer="16"/>
<wire x1="19.685" y1="20.32" x2="20.955" y2="19.05" width="0.254" layer="16"/>
<wire x1="20.955" y1="19.05" x2="20.955" y2="15.875" width="0.254" layer="16"/>
<wire x1="20.955" y1="15.875" x2="21.59" y2="15.24" width="0.254" layer="16"/>
<wire x1="38.735" y1="6.985" x2="38.735" y2="6.35" width="0.254" layer="16"/>
<wire x1="21.59" y1="15.24" x2="27.94" y2="15.24" width="0.254" layer="16"/>
<wire x1="27.94" y1="15.24" x2="31.75" y2="11.43" width="0.254" layer="16"/>
<wire x1="31.75" y1="11.43" x2="34.29" y2="11.43" width="0.254" layer="16"/>
<wire x1="34.29" y1="11.43" x2="38.735" y2="6.985" width="0.254" layer="16"/>
<contactref element="JP28" pad="1"/>
<wire x1="38.735" y1="3.81" x2="38.735" y2="6.35" width="0.254" layer="16"/>
</signal>
<signal name="SPIMISO">
<contactref element="U$2" pad="SPIMISO"/>
<wire x1="19.685" y1="21.59" x2="18.415" y2="21.59" width="0.254" layer="16"/>
<wire x1="22.225" y1="29.21" x2="20.955" y2="27.94" width="0.254" layer="16"/>
<wire x1="20.955" y1="27.94" x2="20.955" y2="22.86" width="0.254" layer="16"/>
<wire x1="20.955" y1="22.86" x2="19.685" y2="21.59" width="0.254" layer="16"/>
<wire x1="47.26" y1="29.21" x2="22.225" y2="29.21" width="0.254" layer="16"/>
<contactref element="S2" pad="4"/>
<wire x1="47.26" y1="29.21" x2="49.455" y2="27.015" width="0.254" layer="16"/>
<contactref element="JP23" pad="1"/>
<wire x1="15.875" y1="21.59" x2="18.415" y2="21.59" width="0.254" layer="16"/>
</signal>
<signal name="RESETN">
<contactref element="S1" pad="4"/>
<contactref element="U$2" pad="RESETN"/>
<contactref element="JP24" pad="1"/>
<wire x1="43.815" y1="13.97" x2="46.355" y2="13.97" width="0.254" layer="16"/>
<wire x1="46.355" y1="13.97" x2="49.455" y2="10.87" width="0.254" layer="16"/>
<wire x1="49.455" y1="10.87" x2="49.455" y2="9.235" width="0.254" layer="16"/>
</signal>
<signal name="N$6">
<contactref element="R4" pad="1"/>
<contactref element="2" pad="A"/>
<wire x1="11.43" y1="16.51" x2="11.43" y2="17.78" width="0.254" layer="16"/>
<wire x1="15.24" y1="12.7" x2="11.43" y2="16.51" width="0.254" layer="16"/>
<wire x1="21.59" y1="12.7" x2="15.24" y2="12.7" width="0.254" layer="16"/>
</signal>
<signal name="N$1">
<contactref element="R3" pad="1"/>
<contactref element="1" pad="A"/>
<wire x1="14.605" y1="10.16" x2="19.05" y2="10.16" width="0.254" layer="16"/>
<wire x1="11.43" y1="13.335" x2="14.605" y2="10.16" width="0.254" layer="16"/>
<wire x1="19.05" y1="10.16" x2="19.685" y2="10.795" width="0.254" layer="16"/>
<wire x1="19.685" y1="10.795" x2="21.59" y2="10.795" width="0.254" layer="16"/>
</signal>
<signal name="N$2">
<contactref element="R2" pad="1"/>
<contactref element="0" pad="A"/>
<wire x1="11.43" y1="8.89" x2="12.7" y2="7.62" width="0.254" layer="16"/>
<wire x1="12.7" y1="7.62" x2="19.3675" y2="7.62" width="0.254" layer="16"/>
<wire x1="19.3675" y1="7.62" x2="20.6375" y2="8.89" width="0.254" layer="16"/>
<wire x1="20.6375" y1="8.89" x2="21.59" y2="8.89" width="0.254" layer="16"/>
</signal>
<signal name="LED0">
<contactref element="R2" pad="2"/>
<contactref element="U$2" pad="DIO8"/>
<wire x1="26.67" y1="8.89" x2="27.94" y2="8.89" width="0.254" layer="16"/>
<wire x1="27.94" y1="8.89" x2="30.48" y2="6.35" width="0.254" layer="16"/>
<wire x1="30.48" y1="6.35" x2="31.115" y2="6.35" width="0.254" layer="16"/>
<contactref element="JP11" pad="1"/>
<wire x1="31.115" y1="3.81" x2="31.115" y2="6.35" width="0.254" layer="16"/>
</signal>
<signal name="LED1">
<contactref element="R3" pad="2"/>
<contactref element="U$2" pad="DIO9"/>
<wire x1="26.67" y1="10.795" x2="27.305" y2="10.795" width="0.254" layer="16"/>
<wire x1="27.305" y1="10.795" x2="30.48" y2="7.62" width="0.254" layer="16"/>
<wire x1="30.48" y1="7.62" x2="32.385" y2="7.62" width="0.254" layer="16"/>
<wire x1="32.385" y1="7.62" x2="33.655" y2="6.35" width="0.254" layer="16"/>
<contactref element="JP12" pad="1"/>
<wire x1="33.655" y1="3.81" x2="33.655" y2="6.35" width="0.254" layer="16"/>
</signal>
<signal name="RX">
<contactref element="JP3" pad="3"/>
<contactref element="U$2" pad="DIO7"/>
<wire x1="20.32" y1="7.62" x2="27.305" y2="7.62" width="0.254" layer="16"/>
<wire x1="19.685" y1="6.985" x2="20.32" y2="7.62" width="0.254" layer="16"/>
<wire x1="19.685" y1="5.715" x2="19.685" y2="6.985" width="0.254" layer="16"/>
<wire x1="19.05" y1="5.08" x2="19.685" y2="5.715" width="0.254" layer="16"/>
<wire x1="7.62" y1="5.08" x2="19.05" y2="5.08" width="0.254" layer="16"/>
<wire x1="5.08" y1="7.62" x2="7.62" y2="5.08" width="0.254" layer="16"/>
<wire x1="27.305" y1="7.62" x2="28.575" y2="6.35" width="0.254" layer="16"/>
<wire x1="3.81" y1="7.62" x2="5.08" y2="7.62" width="0.254" layer="16"/>
<contactref element="JP10" pad="1"/>
<wire x1="28.575" y1="3.81" x2="28.575" y2="6.35" width="0.254" layer="16"/>
</signal>
<signal name="TX">
<contactref element="JP3" pad="2"/>
<contactref element="U$2" pad="DIO6"/>
<wire x1="5.715" y1="5.08" x2="3.81" y2="5.08" width="0.254" layer="16"/>
<wire x1="8.255" y1="2.54" x2="5.715" y2="5.08" width="0.254" layer="16"/>
<wire x1="24.765" y1="2.54" x2="8.255" y2="2.54" width="0.254" layer="16"/>
<contactref element="JP9" pad="1"/>
<wire x1="24.765" y1="2.54" x2="26.035" y2="3.81" width="0.254" layer="16"/>
<wire x1="26.035" y1="3.81" x2="26.035" y2="6.35" width="0.254" layer="16"/>
</signal>
<signal name="LED2">
<contactref element="R4" pad="2"/>
<contactref element="U$2" pad="DIO10"/>
<wire x1="26.67" y1="12.7" x2="30.48" y2="8.89" width="0.254" layer="16"/>
<wire x1="30.48" y1="8.89" x2="33.02" y2="8.89" width="0.254" layer="16"/>
<wire x1="33.02" y1="8.89" x2="35.56" y2="6.35" width="0.254" layer="16"/>
<wire x1="35.56" y1="6.35" x2="36.195" y2="6.35" width="0.254" layer="16"/>
<contactref element="JP13" pad="1"/>
<wire x1="36.195" y1="3.81" x2="36.195" y2="6.35" width="0.254" layer="16"/>
</signal>
<signal name="ADC1">
<contactref element="JP1" pad="3"/>
<contactref element="U$2" pad="ADC1"/>
<wire x1="2.54" y1="25.4" x2="3.81" y2="26.67" width="0.254" layer="16"/>
<contactref element="JP26" pad="1"/>
<wire x1="3.81" y1="26.67" x2="15.875" y2="26.67" width="0.254" layer="16"/>
<wire x1="15.875" y1="26.67" x2="18.415" y2="26.67" width="0.254" layer="16"/>
</signal>
<signal name="ADC2">
<contactref element="JP1" pad="4"/>
<contactref element="U$2" pad="ADC2"/>
<wire x1="15.24" y1="17.78" x2="7.62" y2="25.4" width="0.254" layer="16"/>
<wire x1="37.465" y1="3.175" x2="37.465" y2="6.985" width="0.254" layer="16"/>
<wire x1="38.1" y1="2.54" x2="37.465" y2="3.175" width="0.254" layer="16"/>
<wire x1="39.37" y1="2.54" x2="38.1" y2="2.54" width="0.254" layer="16"/>
<wire x1="40.005" y1="3.175" x2="39.37" y2="2.54" width="0.254" layer="16"/>
<wire x1="42.545" y1="8.255" x2="41.91" y2="7.62" width="0.254" layer="16"/>
<wire x1="41.91" y1="7.62" x2="40.64" y2="7.62" width="0.254" layer="16"/>
<wire x1="40.64" y1="7.62" x2="40.005" y2="6.985" width="0.254" layer="16"/>
<wire x1="40.005" y1="6.985" x2="40.005" y2="3.175" width="0.254" layer="16"/>
<wire x1="7.62" y1="25.4" x2="5.08" y2="25.4" width="0.254" layer="16"/>
<wire x1="15.24" y1="17.78" x2="19.05" y2="17.78" width="0.254" layer="16"/>
<wire x1="19.05" y1="17.78" x2="19.685" y2="17.145" width="0.254" layer="16"/>
<wire x1="19.685" y1="17.145" x2="19.685" y2="14.605" width="0.254" layer="16"/>
<wire x1="19.685" y1="14.605" x2="20.32" y2="13.97" width="0.254" layer="16"/>
<wire x1="20.32" y1="13.97" x2="27.305" y2="13.97" width="0.254" layer="16"/>
<wire x1="27.305" y1="13.97" x2="31.115" y2="10.16" width="0.254" layer="16"/>
<wire x1="31.115" y1="10.16" x2="33.02" y2="10.16" width="0.254" layer="16"/>
<wire x1="33.02" y1="10.16" x2="35.56" y2="7.62" width="0.254" layer="16"/>
<wire x1="35.56" y1="7.62" x2="36.83" y2="7.62" width="0.254" layer="16"/>
<wire x1="36.83" y1="7.62" x2="37.465" y2="6.985" width="0.254" layer="16"/>
<contactref element="JP27" pad="1"/>
<wire x1="43.815" y1="26.67" x2="46.355" y2="26.67" width="0.254" layer="16"/>
<wire x1="42.545" y1="8.255" x2="42.545" y2="25.4" width="0.254" layer="16"/>
<wire x1="42.545" y1="25.4" x2="43.815" y2="26.67" width="0.254" layer="16"/>
</signal>
<signal name="ADC3">
<contactref element="JP1" pad="5"/>
<contactref element="U$2" pad="DIO0"/>
<wire x1="7.3025" y1="24.13" x2="3.81" y2="24.13" width="0.254" layer="16"/>
<wire x1="13.97" y1="17.4625" x2="7.3025" y2="24.13" width="0.254" layer="16"/>
<wire x1="2.54" y1="22.86" x2="3.81" y2="24.13" width="0.254" layer="16"/>
<contactref element="JP2" pad="1"/>
<wire x1="15.875" y1="13.97" x2="13.97" y2="15.875" width="0.254" layer="16"/>
<wire x1="13.97" y1="15.875" x2="13.97" y2="17.4625" width="0.254" layer="16"/>
<wire x1="15.875" y1="13.97" x2="18.415" y2="13.97" width="0.254" layer="16"/>
</signal>
<signal name="ADC4">
<contactref element="JP1" pad="6"/>
<contactref element="U$2" pad="DIO1"/>
<contactref element="JP4" pad="1"/>
<wire x1="5.08" y1="22.86" x2="6.985" y2="22.86" width="0.254" layer="16"/>
<wire x1="6.985" y1="22.86" x2="10.16" y2="19.685" width="0.254" layer="16"/>
<wire x1="10.16" y1="19.685" x2="10.16" y2="16.51" width="0.254" layer="16"/>
<wire x1="10.16" y1="16.51" x2="15.24" y2="11.43" width="0.254" layer="16"/>
<wire x1="15.24" y1="11.43" x2="15.875" y2="11.43" width="0.254" layer="16"/>
<wire x1="15.875" y1="11.43" x2="18.415" y2="11.43" width="0.254" layer="16"/>
</signal>
<signal name="N$18">
<via x="23.495" y="26.67" extent="1-16" drill="0.9" diameter="1.4224"/>
</signal>
<signal name="N$19">
<via x="23.495" y="24.13" extent="1-16" drill="0.9" diameter="1.4224"/>
</signal>
<signal name="N$20">
<via x="26.035" y="26.67" extent="1-16" drill="0.9" diameter="1.4224"/>
</signal>
<signal name="N$21">
<via x="26.035" y="24.13" extent="1-16" drill="0.9" diameter="1.4224"/>
</signal>
<signal name="N$22">
<via x="28.575" y="26.67" extent="1-16" drill="0.9" diameter="1.4224"/>
</signal>
<signal name="N$23">
<via x="28.575" y="24.13" extent="1-16" drill="0.9" diameter="1.4224"/>
</signal>
<signal name="N$24">
<via x="31.115" y="26.67" extent="1-16" drill="0.9" diameter="1.4224"/>
</signal>
<signal name="N$25">
<via x="31.115" y="24.13" extent="1-16" drill="0.9" diameter="1.4224"/>
</signal>
<signal name="N$26">
<via x="33.655" y="26.67" extent="1-16" drill="0.9" diameter="1.4224"/>
</signal>
<signal name="N$27">
<via x="33.655" y="24.13" extent="1-16" drill="0.9" diameter="1.4224"/>
</signal>
<signal name="N$28">
<via x="36.195" y="26.67" extent="1-16" drill="0.9" diameter="1.4224"/>
</signal>
<signal name="N$29">
<via x="36.195" y="24.13" extent="1-16" drill="0.9" diameter="1.4224"/>
</signal>
<signal name="N$30">
<via x="38.735" y="26.67" extent="1-16" drill="0.9" diameter="1.4224"/>
</signal>
<signal name="N$31">
<via x="38.735" y="24.13" extent="1-16" drill="0.9" diameter="1.4224"/>
</signal>
<signal name="N$32">
<via x="41.275" y="26.67" extent="1-16" drill="0.9" diameter="1.4224"/>
</signal>
<signal name="N$33">
<via x="41.275" y="24.13" extent="1-16" drill="0.9" diameter="1.4224"/>
</signal>
<signal name="N$16">
<via x="23.495" y="21.59" extent="1-16" drill="0.9" diameter="1.4224"/>
</signal>
<signal name="N$17">
<via x="26.035" y="21.59" extent="1-16" drill="0.9" diameter="1.4224"/>
</signal>
<signal name="N$34">
<via x="28.575" y="21.59" extent="1-16" drill="0.9" diameter="1.4224"/>
</signal>
<signal name="N$35">
<via x="31.115" y="21.59" extent="1-16" drill="0.9" diameter="1.4224"/>
</signal>
<signal name="N$36">
<via x="33.655" y="21.59" extent="1-16" drill="0.9" diameter="1.4224"/>
</signal>
<signal name="N$37">
<via x="36.195" y="21.59" extent="1-16" drill="0.9" diameter="1.4224"/>
</signal>
<signal name="N$38">
<via x="38.735" y="21.59" extent="1-16" drill="0.9" diameter="1.4224"/>
</signal>
<signal name="N$39">
<via x="41.275" y="21.59" extent="1-16" drill="0.9" diameter="1.4224"/>
</signal>
<signal name="N$40">
<via x="41.275" y="19.05" extent="1-16" drill="0.9" diameter="1.4224"/>
</signal>
<signal name="N$41">
<via x="38.735" y="19.05" extent="1-16" drill="0.9" diameter="1.4224"/>
</signal>
<signal name="N$42">
<via x="36.195" y="19.05" extent="1-16" drill="0.9" diameter="1.4224"/>
</signal>
<signal name="N$43">
<via x="33.655" y="19.05" extent="1-16" drill="0.9" diameter="1.4224"/>
</signal>
<signal name="N$44">
<via x="31.115" y="19.05" extent="1-16" drill="0.9" diameter="1.4224"/>
</signal>
<signal name="N$45">
<via x="28.575" y="19.05" extent="1-16" drill="0.9" diameter="1.4224"/>
</signal>
<signal name="N$46">
<via x="26.035" y="19.05" extent="1-16" drill="0.9" diameter="1.4224"/>
</signal>
<signal name="N$47">
<via x="23.495" y="19.05" extent="1-16" drill="0.9" diameter="1.4224"/>
</signal>
<signal name="N$48">
<via x="23.495" y="16.51" extent="1-16" drill="0.9" diameter="1.4224"/>
</signal>
<signal name="N$49">
<via x="26.035" y="16.51" extent="1-16" drill="0.9" diameter="1.4224"/>
</signal>
<signal name="N$50">
<via x="28.575" y="16.51" extent="1-16" drill="0.9" diameter="1.4224"/>
</signal>
<signal name="N$51">
<via x="31.115" y="16.51" extent="1-16" drill="0.9" diameter="1.4224"/>
</signal>
<signal name="N$52">
<via x="33.655" y="16.51" extent="1-16" drill="0.9" diameter="1.4224"/>
</signal>
<signal name="N$53">
<via x="36.195" y="16.51" extent="1-16" drill="0.9" diameter="1.4224"/>
</signal>
<signal name="N$54">
<via x="38.735" y="16.51" extent="1-16" drill="0.9" diameter="1.4224"/>
</signal>
<signal name="N$55">
<via x="41.275" y="16.51" extent="1-16" drill="0.9" diameter="1.4224"/>
</signal>
<signal name="N$56">
<via x="41.275" y="13.97" extent="1-16" drill="0.9" diameter="1.4224"/>
</signal>
<signal name="N$57">
<via x="41.275" y="11.43" extent="1-16" drill="0.9" diameter="1.4224"/>
</signal>
<signal name="N$58">
<via x="41.275" y="8.89" extent="1-16" drill="0.9" diameter="1.4224"/>
</signal>
<signal name="N$59">
<via x="38.735" y="8.89" extent="1-16" drill="0.9" diameter="1.4224"/>
</signal>
<signal name="N$60">
<via x="38.735" y="11.43" extent="1-16" drill="0.9" diameter="1.4224"/>
</signal>
<signal name="N$61">
<via x="38.735" y="13.97" extent="1-16" drill="0.9" diameter="1.4224"/>
</signal>
<signal name="N$62">
<via x="36.195" y="13.97" extent="1-16" drill="0.9" diameter="1.4224"/>
</signal>
<signal name="N$63">
<via x="36.195" y="11.43" extent="1-16" drill="0.9" diameter="1.4224"/>
</signal>
<signal name="N$64">
<via x="33.655" y="13.97" extent="1-16" drill="0.9" diameter="1.4224"/>
</signal>
<signal name="N$65">
<via x="31.115" y="13.97" extent="1-16" drill="0.9" diameter="1.4224"/>
</signal>
<signal name="USER">
<contactref element="S3" pad="4"/>
<contactref element="U$2" pad="DIO16"/>
<contactref element="JP19" pad="1"/>
<wire x1="43.815" y1="21.59" x2="46.355" y2="21.59" width="0.254" layer="16"/>
<wire x1="46.355" y1="21.59" x2="49.455" y2="18.49" width="0.254" layer="16"/>
<wire x1="49.455" y1="18.49" x2="49.455" y2="18.125" width="0.254" layer="16"/>
</signal>
<signal name="N$3">
<contactref element="JP5" pad="1"/>
<contactref element="U$2" pad="DIO2"/>
<wire x1="15.875" y1="8.89" x2="18.415" y2="8.89" width="0.254" layer="16"/>
</signal>
<signal name="N$4">
<contactref element="U$2" pad="DIO3"/>
<contactref element="JP6" pad="1"/>
<wire x1="15.875" y1="6.35" x2="18.415" y2="6.35" width="0.254" layer="16"/>
</signal>
<signal name="N$5">
<contactref element="JP8" pad="1"/>
<contactref element="U$2" pad="DIO5"/>
<wire x1="23.495" y1="3.81" x2="23.495" y2="6.35" width="0.254" layer="16"/>
</signal>
<signal name="N$7">
<contactref element="JP7" pad="1"/>
<contactref element="U$2" pad="DIO4"/>
<wire x1="20.955" y1="3.81" x2="20.955" y2="6.35" width="0.254" layer="16"/>
</signal>
<signal name="N$8">
<contactref element="U$2" pad="DIO11"/>
<contactref element="JP14" pad="1"/>
<wire x1="43.815" y1="6.35" x2="46.355" y2="6.35" width="0.254" layer="16"/>
</signal>
<signal name="N$9">
<contactref element="U$2" pad="DIO12"/>
<contactref element="JP15" pad="1"/>
<wire x1="43.815" y1="8.89" x2="46.355" y2="8.89" width="0.254" layer="16"/>
</signal>
<signal name="N$10">
<contactref element="U$2" pad="DIO13"/>
<contactref element="JP17" pad="1"/>
<wire x1="43.815" y1="11.43" x2="46.355" y2="11.43" width="0.254" layer="16"/>
</signal>
<signal name="N$11">
<contactref element="U$2" pad="DIO14"/>
<contactref element="JP16" pad="1"/>
<wire x1="43.815" y1="16.51" x2="46.355" y2="16.51" width="0.254" layer="16"/>
</signal>
<signal name="N$12">
<contactref element="U$2" pad="DIO15"/>
<contactref element="JP18" pad="1"/>
<wire x1="43.815" y1="19.05" x2="46.355" y2="19.05" width="0.254" layer="16"/>
</signal>
<signal name="N$13">
<contactref element="U$2" pad="DIO17"/>
<contactref element="JP20" pad="1"/>
<wire x1="43.815" y1="24.13" x2="46.355" y2="24.13" width="0.254" layer="16"/>
</signal>
<signal name="N$14">
<contactref element="JP21" pad="1"/>
<contactref element="U$2" pad="SPISSZ"/>
<wire x1="15.875" y1="16.51" x2="18.415" y2="16.51" width="0.254" layer="16"/>
</signal>
<signal name="N$15">
<contactref element="JP22" pad="1"/>
<contactref element="U$2" pad="SPICLK"/>
<wire x1="15.875" y1="24.13" x2="18.415" y2="24.13" width="0.254" layer="16"/>
</signal>
<signal name="N$66">
<contactref element="JP25" pad="1"/>
<contactref element="U$2" pad="SPIMOSI"/>
<wire x1="15.875" y1="19.05" x2="18.415" y2="19.05" width="0.254" layer="16"/>
</signal>
</signals>
</board>
</drawing>
</eagle>
